<svg viewBox="0 0 120 120" version="1.1" xmlns="http://www.w3.org/2000/svg" xmlns:xlink="http://www.w3.org/1999/xlink">
  <g fill="none" fill-rule="evenodd" stroke-width="1" stroke="black">
    <circle cx="50" cy="50" r="30" stroke="#f0582f" stroke-width="2" fill="#f0582f" fill-opacity="0.3">
      <animate attributeName="r" begin="0s" dur="2s" values="0;30" keyTimes="0;1" keySplines="0.1,0.2,0.3,1" calcMode="spline" repeatCount="indefinite"></animate>
      <animate attributeName="stroke-opacity" begin="0s" dur="3s" values="0;.3;.3;0" repeatCount="indefinite"></animate>
    </circle>
<circle cx="50" cy="50" r="7" stroke="#f0582f" stroke-width="2" fill="#f0582f">
<animate attributeName="r" begin="0s" dur="5s" values="5;7" keyTimes="0;1" keySplines="0.1,0.2,0.3,1" calcMode="spline" repeatCount="indefinite"></animate>
</circle>
    <circle cx="50" cy="50" r="20"  stroke="#f0582f" stroke-width="2">
      <animate attributeName="r" begin="-1s" dur="2s" values="0;20" keyTimes="0;1" keySplines="0.1,0.2,0.3,1" calcMode="spline" repeatCount="indefinite"></animate>
      <animate attributeName="stroke-opacity" begin="-1s" dur="3s" values="0;.3;.3;0" repeatCount="indefinite"></animate>
    </circle>
  </g>
</svg>