<svg xmlns="http://www.w3.org/2000/svg" width="200" height="200" viewBox="0 0 200 200">
  <g id="Group_3" data-name="Group 3" transform="translate(-804 -146)">
    <circle id="Ellipse_3" data-name="Ellipse 3" cx="100" cy="100" r="100" transform="translate(804 146)" fill="#f5a648"/>
    <rect id="Rectangle_63" data-name="Rectangle 63" width="103" height="7" transform="translate(855 285)" fill="#fff"/>
    <rect id="Rectangle_47" data-name="Rectangle 47" width="46" height="96" transform="translate(861 189)" fill="#fff"/>
    <rect id="Rectangle_48" data-name="Rectangle 48" width="44" height="58" transform="translate(907 227)" fill="#fff"/>
    <rect id="Rectangle_49" data-name="Rectangle 49" width="13" height="12" transform="translate(868 196)" fill="#f5a648" opacity="0.997"/>
    <rect id="Rectangle_53" data-name="Rectangle 53" width="13" height="12" transform="translate(913 234)" fill="#f5a648"/>
    <rect id="Rectangle_50" data-name="Rectangle 50" width="13" height="12" transform="translate(868 215)" fill="#f5a648" opacity="0.997"/>
    <rect id="Rectangle_54" data-name="Rectangle 54" width="13" height="12" transform="translate(913 253)" fill="#f5a648"/>
    <rect id="Rectangle_55" data-name="Rectangle 55" width="13" height="12" transform="translate(868 234)" fill="#f5a648" opacity="0.997"/>
    <rect id="Rectangle_56" data-name="Rectangle 56" width="13" height="12" transform="translate(868 254)" fill="#f5a648"/>
    <rect id="Rectangle_51" data-name="Rectangle 51" width="13" height="12" transform="translate(887 196)" fill="#f5a648" opacity="0.997"/>
    <rect id="Rectangle_59" data-name="Rectangle 59" width="13" height="12" transform="translate(932 234)" fill="#f5a648"/>
    <rect id="Rectangle_52" data-name="Rectangle 52" width="13" height="12" transform="translate(887 215)" fill="#f5a648" opacity="0.997"/>
    <rect id="Rectangle_60" data-name="Rectangle 60" width="13" height="12" transform="translate(932 253)" fill="#f5a648"/>
    <rect id="Rectangle_57" data-name="Rectangle 57" width="13" height="12" transform="translate(887 234)" fill="#f5a648" opacity="0.997"/>
    <rect id="Rectangle_58" data-name="Rectangle 58" width="13" height="12" transform="translate(887 254)" fill="#f5a648"/>
    <rect id="Rectangle_61" data-name="Rectangle 61" width="20" height="13" transform="translate(874 272)" fill="#f5a648"/>
    <rect id="Rectangle_62" data-name="Rectangle 62" width="20" height="13" transform="translate(919 272)" fill="#f5a648"/>
  </g>
</svg>
