S.No.,Employee Code,Employee Name,DOJ,DOB,Mobile No.,City,Branch,Official Email ID,Designation,Department,Salary Updated,Pool Balance,"Shift Timing,   M- F","Shift Timing, Saturday",HOD Emp. Code
1,IND5600003,Smita Chasker,24-Jul-95,7-Aug-70,9826437600,Indore,Head Office,smita_delivery@swastika.co.in,Manager,Delivery,"30,700",0,9:45-18:45,10:00-18:00,IND3600010
3,IND5600005,Sheetal Duraphe,21-Sep-98,3-Feb-78,9907590045,Indore,Head Office,sheetal.d@swastika.co.in,Manager,RMS,"39,200",12,10:00-19:00,10:00-18:00,IND3600010
4,IND5600006,Sunita Choursiya,13-Nov-00,10-Aug-75,9926580039,Indore,Head Office,sunita@swastika.co.in,Manager,Accounts,"39,200",8,10:00-19:00,10:00-18:00,IND3600010
5,IND5800007,Rakhi Saxena,16-Mar-04,19-Mar-76,9827524533,Indore,Head Office,rakhi.s@swastika.co.in,Asst Manager,RMS,"19,100",12,9:15-18:15,10:00-18:00,IND3600010
6,IND5600008,Preeti Chugh,10-Jul-05,4-Aug-81,9098035103,Indore,Head Office,priti.fno@swastika.co.in,Manager,F & O,"40,000",2,9:45-18:45,10:00-18:00,IND3600010
7,IND5600009,Ajay Dharwa ,24-Aug-05,3-Sep-79,9039043200,Indore,Head Office,dharwa_ajay@swastika.co.in,Asst Manager,IT,"28,600",0,7:30-16:30,10:00-18:00,IND1100001
8,IND3600010,Mahendra Sharma,5-Jan-06,23-Jun-64,"9425353821, 9039090992",Indore,Head Office,msharma@swastika.co.in,VP,Operations,"137,500",15,11:00-20:00,10:00-18:00,IND1100001
9,IND5800011,Vivek Deshpande,9-Jan-06,9-Jul-82,9827728707,Indore,Head Office,vivek@swastika.co.in,Asst Manager,IT,"30,250",0,10:30-19:30,10:00-18:00,IND5600009
10,IND5600016,Shraddha Ojha,3-Sep-06,26-Jun-83,9993138688,Indore,Head Office,shraddha.ojha@swastika.co.in,Asst Manager,DP,"19,000",0,10:00-19:00,10:00-18:00,IND3600010
11,IND5600018,Om Prakash Soni,3-Oct-06,1-Jan-82,9926855108,Indore,Head Office,omprakash.s@swastika.co.in,Asst Manager,Accounts,"19,700",14,9:30-18:30,10:00-18:00,IND5600006
12,IND8100019,Dimple Jain,1-Mar-07,24-Nov-78,9425767991,Indore,Head Office,dimple.j@swastika.co.in,Sr. Executive,Accounts - HO,"18,000",21,10:00-19:00,10:00-18:00,IND5800964
13,IND5600020,Pawan Bharti,13-Mar-07,7-Sep-83,8962527167,Indore,Head Office,pawan.b@swastika.co.in,Asst Manager- Commodity Admin,Admin,"23,000",0,15:30-00:00,11:00-18:00,IND5600021
14,IND5600021,Deepesh Verma,22-Sep-07,6-Feb-84,9755864725,Indore,Head Office,deepesh.v@swastika.co.in,Asst Manager,Admin,"31,500",0,9:30-18:30,10:00-18:00,IND5600021
15,IND8200023,Sonali Rahatal,27-Nov-07,8-Jan-79,8878651200,Indore,Head Office,sonali.r@swastika.co.in,Dealer- Equity,Trading,"14,200",0,8:45-17:45,10:00-18:00,IND8100031
16,IND8100024,Sarvesh Shukla,4-Dec-07,11-Jan-79,9993757156,Indore,Head Office,sarvesh.s@swastika.co.in,Sr Executive,Delivery,"19,000",13,9:30-18:30,10:00-18:00,IND8100024
17,IND8100025,Lokesh Soni,10-Dec-07,30-Aug-84,9893550082,Indore,Head Office,lokesh.s@swastika.co.in,Sr. Executive,DP,"20,750",2,10:15-19:15,10:00-18:00,IND5600016
18,IND8200026,Rakesh Ruperi ,28-Jul-08,10-Nov-81,8817872988,Indore,Head Office,rakesh.r@swastika.co.in,Executive,Delivery,"17,750",4,10:00-19:00,10:00-18:00,IND8100024
19,IND8200027,Shruti Shukla,1-Sep-08,17-Aug-81,9993131061,Indore,Head Office,shruti.s@swastika.co.in,Sr. Executive,Admin,"15,000",0,9:00-18:00,10:00-18:00,IND5600021
20,IND8100029,Deepti Pandey ,14-Nov-09,19-Jan-82,9926032033,Indore,Head Office,deepti.p@swastika.co.in,Sr Executive,Accounts,"18,000",0,10:00-19:00,10:00-18:00,IND5600006
21,IND8200030,Ranvir Thakur,1-Apr-10,24-Jan-92,9617396807,Indore,Head Office,ravithakur@swastika.co.in,Executive,DP,"10,500",0,8:00-17:00,10:00-18:00,IND5600016
22,IND8100031,Mahendra Chouhan,12-Apr-10,18-Oct-83,9827007083,Indore,Head Office,mahendra.c@swastika.co.in,Sr. Dealer,Trading,"22,000",2,9:00-18:00,10:00-18:00,IND3600010
23,IND8200032,Jyoti Lashkarkar,28-Jul-10,11-Oct-82,9993847952,Indore,Head Office,jyoti.lashkarkar@swastika.co.in,Executive,Front office,"11,500",0,9:00-18:00,10:00-18:00,IND1100001
24,IND8100035,Aarti Manjreker,5-Nov-10,12-Jun-85,9826969206,Indore,Head Office,aartimanjarekar@swastika.co.in,Sr Executive,DP,"15,000",0,10:15-19:15,10:00-18:00,IND5600016
25,IND8200037,Sunil Rupchandani,1-Dec-10,2-Jun-85,9826079988,Indore,Head Office,sunilrupchandani@swastika.co.in,Dealer- Commodity,Trading,"16,000",2,8:45-17:45,10:00-18:00,IND8100031
26,IND8200038,Ankit Laddha,20-Jan-11,2-Aug-89,9770066369,Indore,Head Office,ankitladdha@swastika.co.in ,Executive,Admin,"18,500",1,8:30-17:30,10:00-18:00,IND5600021
27,IND8200039,Sarita Baghmar,13-Jun-11,24-Aug-89,9713176407,Indore,Head Office,sarita.baghmar@swastika.co.in,Executive,Accounts,"13,500",10,9:00-18:00,10:00-18:00,IND5600006
28,IND8200043,Shriyash Jachak,4-Nov-11,15-Nov-85,9926421824,Indore,Head Office,shriyash.jachak@swastika.co.in,Executive,Accounts ,"14,500",11,8:30-17:30,10:00-18:00,IND5600006
29,IND8100044,Deepak Sharma,10-Dec-11,30-Mar-80,9826855738,Indore,Head Office,deepak.sharma@swastika.co.in,Sr. Executive,DP ,"16,750",11,10:00-19:00,10:00-18:00,IND5600016
30,IND8100049,Monica Rai,15-Jul-12,11-Nov-82,9753337650,Indore,Head Office,monika.r@swastika.co.in,Sr. Executive,Accounts - HO,"16,000",7,9:00-18:00,10:00-18:00,IND5800964
31,IND8200058,Abhishek Sharma,15-Apr-13,4-Mar-89,9300080264,Indore,Head Office, abhishek.sharma@swastika.co.in,Executive,Admin,"18,000",0,8:45-17:45,10:00-18:00,IND5600021
32,IND8200061,Humesh Jain,22-Jul-13,13-Mar-84,9009003405,Indore,Head Office,humesh.jain@swastika.co.in,Executive,KYC,"13,000",0,10:00-19:00,10:00-18:00,IND5502049
33,IND7200063,Amita Jain,1-Aug-13,22-Apr-81,9893007989,Indore,YN Road,amita.jain@swastika.co.in,Relationship Manager,Distribution,"18,150",0,8:30-17:30,10:00-18:00,IND5600016
34,IND8200067,Nikhil Godha,1-Oct-13,8-Feb-84,9893555459,Indore,Head Office,nikhil.godha@swastika.co.in,Sr. Executive,CRD,"20,000",0,10:00-19:00,10:00-18:00,IND3600010
35,IND5400069,Ankit Khantal,12-Oct-13,27-Jun-83,9977444768,Indore,Navneet Darshan,ankit.khantal@swastika.co.in,Branch Manager,Marketing,"27,500",0,9:15-18:15,10:00-18:00,IND3600093
36,IND8200073,Ritesh Mangal,5-Nov-13,4-Apr-91,9907333631,Indore,Head Office,ritesh.mangal@swastika.co.in,Dealer- Commodity,Trading ,"16,000",0,14:30-22:30,10:00-18:00,IND8100031
37,IND8200077,Shweta Khandelwal,3-Dec-13,9-Jan-83,7566561717,Indore,Head Office,shweta.khandelwal@swastika.co.in,Dealer- Equity,Trading,"12,500",11,9:00-17:00,10:00-18:00,IND8100031
38,IND8200079,Arvind Mishra,15-Feb-14,10-Oct-90,7415464336,Indore,Head Office,arvind.mishra@swastika.co.in,Complaince Officer ,Admin (Comm),"15,000",1,9:15-18:15,10:00-18:00,IND5600021
39,IND3600093,Vinit Rathi,25-Jul-05,11-Feb-78,"7489633999, 9826533999",Indore,YN Road,vinitrathi@swastika.co.in,VP,Marketing,"115,500",15,11:00-20:00,10:00-18:00,IND1100001
40,IND8200094,Jayshree Lashkarkar,28-May-10,30-Oct-82,7489626080,Indore,YN Road,jaishri.l@swastika.co.in,Executive,Front office,"11,000",1,10:00-19:00,10:00-18:00,IND1100002
41,IND7200098,Kavita Jain ,1-Jul-11,6-Nov-82,9826034544,Indore,YN Road,kavita.jain@swastika.co.in,Trainer,SIFMR,"33,000",3,10:35-18:05,10:00-18:00,IND1100002
42,IND4200099,Archana Matta,5-Jul-11,5-Mar-81,8120412000,Indore,YN Road,archana.matta@swastika.co.in,Zonal Business Head,Marketing,"105,000",0,9:30-18:30,10:00-18:00,IND1100001
43,IND8100100,Akhilesh Gupta,5-Sep-11,25-May-84,9926589860,Indore,Head Office,akhilesh.gupta@swastika.co.in,Sr. MIS Executive,MIS,"23,000",0,10:15-19:15,10:00-18:00,IND5502049
44,IND8200102,Varun Chouhan,25-Sep-12,11-Nov-85,9893118560,Indore,Head Office,varun.chouhan@swastika.co.in,Executive,IT,"18,000",0,7:00-16:00,10:00-18:00,IND5600009
45,IND8200104,Praveen Mishra,11-Mar-13,27-Oct-82,9826509507,Indore,YN Road, praveen.mishra@swastika.co.in,Dealer,Trading,"15,730",5,9:00-18:00,10:00-18:00,IND8100031
46,IND8100108,Santosh Meena,1-Jul-13,20-Aug-89,9770963620,Indore,YN Road,santosh.meena@swastika.co.in,Sr. Equity Research Analyst ,Research,"30,250",2,8:00-17:00,10:00-18:00,IND4200099
47,IND5200123,Rajendra Mundra,1-Sep-10,20-Dec-70,9826998933,Indore,Airport,rajendra.mundra@swastika.co.in,Branch Manager,Marketing,"20,000",17,9:00-18:00,10:00-18:00,IND3600093
48,IND7200124,Vijay Kumar Sharma,1-Sep-09,6-Nov-79,9302125561,Indore,Annapurna,vijay.s@swastika.co.in,Branch Manager,Marketing,"27,500",3,10:30-19:30,10:00-18:00,IND3600093
49,IND7200125,Gopal Patel ,10-Nov-10,30-Aug-86,9993940177,Indore,Annapurna,gopal.patel@swastika.co.in,Relationship Manager,Marketing,"18,000",16,10:00-19:00,10:00-18:00,IND7200124
50,IND8200127,Vishnu Yadav,12-Aug-14,21-Jan-86,9755649273,Indore,Annapurna,vishnu.yadav@swastika.co.in ,Dealer- Commodity,Trading,"13,860",5,14:30-22:30,11:00-18:00,IND7200124
51,IND8200129,Vijay Jeswani,13-Feb-12,19-Oct-82,9926061420,Indore,Annapurna,vijay.jeswani@swastika.co.in,Dealer cum RM,Trading ,"12,100",7,9:15-18:15,10:00-18:00,IND7200124
53,IND5200131,Manoj Choubey,1-Aug-08,,9407153013,Indore,Malganj,manoj.c@swastika.co.in,Branch Manager,Marketing,"30,250",14,9:00-18:00,10:00-18:00,IND3600093
54,IND8100132,Lokesh Soni,7-Nov-11,15-Jan-89,9993307985,Indore,Head Office,lokesh.soni@swastika.co.in,Branch Manager,Marketing,"25,000",0,10:00-19:00,10:00-18:00,IND3600093
55,IND8200138,Manoj Sawner,1-Oct-03,6-Jun-73,9685397007,Indore,Sapna Sangeeta,manoj.s@swastika.co.in,Dealer,Trading,"13,310",#N/A,9:00-18:00,10:00-18:00,IND3600093
56,IND7200139,Rahul Shahi,2-Nov-07,24-Jun-87,9981986360,Indore,Sapna Sangeeta, rahul.shahi@swastika.co.in,Relationship Manager,Marketing,"15,700",15,9:00-18:00,10:00-18:00,IND8200138
57,IND7200140,Surendra Jain,15-Nov-06,16-Jan-70,9893419520,Indore,Vijay Nagar, surendra.jain@swastika.co.in,Branch Manager,Marketing,"51,250",8,10:30-19:30,10:00-18:00,IND3600093
58,AHD8200147,Pathik C Vakharia,1-Dec-11,23-Sep-68,9879091803,Ahmedabad,Ahmedabad,pathik.vakharia@swastika.co.in,Dealer,Trading ,"11,130",0,9:00-18:00,10:00-18:00,AHD5200148
59,AHD5200148,Jignesh Bhatt,15-Jul-12,28-Aug-85,9725654265,Ahmedabad,Ahmedabad,jignesh.bhatt@swastika.co.in ,Area Manager,Marketing,"55,000",2,9:00-18:00,10:00-18:00,IND3600093
60,AHD8200150,Dilip A. Prajapati,1-Mar-13,14-Jul-82,9898298490,Ahmedabad,Maninagar,dilip.prajapati@swastika.co.in,Dealer,Trading,"17,600",13,8:45-17:45,10:00-18:00,AHD5200148
61,AHD5200151,Jaydeep Joshi,1-Mar-13,5-Jan-84,"9898863553, 9099200690",Ahmedabad,Maninagar,jaydeep.joshi@swastika.co.in,Branch Manager,Marketing,"52,500",13,9:30-18:30,10:00-18:00,IND3600093
62,AHD7200153,Harendra Jadav,11-Mar-13,13-Jul-80,9979737394,Ahmedabad,Maninagar,harendra.jadav@swastika.co.in,Relationship Manager,Marketing,"35,200",9,9:00-18:00,10:00-18:00,AHD5200148
63,AHD5200154,Rajesh Thakkar,3-Jun-13,10-Oct-80,9998001238,Ahmedabad,Paldi,rajesh.thakkar@swastika.co.in,Branch Manager,Marketing,"45,100",10,9:30-18:30,10:00-18:00,AHD5200148
64,AHD8200158,Priyank Kumar Shah,26-Dec-13,3-Sep-89,9879942176,Ahmedabad,Paldi,priyank.shah@swastika.co.in,Executive,RMS,"11,500",0,9:00-18:00,10:00-18:00,AHD5200148
65,AHD7200168,Mahesh Senma,5-Apr-14,11-Oct-84,9924347244,Ahmedabad,Paldi,mahesh.senma@swastika.co.in,Relationship Manager,Marketing,"17,050",0,9:30-18:30,10:00-18:00,AHD5200148
66,AHD8200172,Aman Parekh,16-Apr-14,19-Jul-87,7383420092,Ahmedabad,Ahmedabad,aman.parekh@swastika.co.in,Dealer- Commodity,Trading ,"16,000",4,17:00-23:30,11:00-18:00,AHD5200148
67,AHM5200175,Kanifnath Bhausaheb Bahpkar,1-Feb-13,12-Aug-81,9822414439,Ahmednagar,Ahmednagar, kanifnath.bahpkar@swastika.co.in,Branch Manager,Marketing,"35,750",15,9:00-18:00,10:00-18:00,BPL4200207
68,AJM7200178,Kunal Sharma,1-Jul-13,11-Jan-79,9828461005,Ajmer,Ajmer,kunal.sharma@swastika.co.in,Relationship Manager,Marketing,"20,000",2,9:00-18:00,10:00-18:00,AJM5200179
69,AJM5200179,Manoj Jain,7-Aug-13,,9414328834,Ajmer,Ajmer,manoj.jain@swastika.co.in,Branch Manager,Marketing,"30,800",8,9:00-18:00,10:00-18:00,IND5201306
70,AMR8100185,Shrikant R. Bijwe,18-Jun-13,8-Aug-86,"9970181883 ,7385528521",Amravati,Amravati,shrikantr.bijwe@swastika.co.in,Sr. Dealer,Trading,"17,050",0,9:15-18:15,10:00-18:00,AMR5201811
71,AMR7200187,Mahendra Raut,21-Aug-13,28-Jun-82,8381099109 ,Amravati,Amravati,mahendra.raut@swastika.co.in,Relationship Manager,Marketing,"22,000",0,10:00-19:00,10:00-18:00,AMR5201811
72,AUR5200190,Manish Gaikwad,1-Jun-13,3-Nov-78,9325256633,Aurangabad,Aurangabad,manish.gaikwad@swastika.co.in,Branch Manager,Marketing,"26,400",1,10:00-19:00,10:00-18:00,IND3600093
73,BGL5200194,Pankaj Kumar,15-Jul-13,30-Sep-81,8088676641,Bangalore,Bangalore,pankaj.kumar@swastika.co.in,Branch Manager,Marketing,"40,416",0,9:00-18:00,10:00-18:00,IND3600093
74,BGL7200195,Imran .M,6-Nov-13,12-Dec-90,8095177869,Bangalore,Bangalore,imran.m@swastika.co.in,Relationship Manager,Marketing,"17,500",0,8:30-17:30,10:00-18:00,BGL5200194
75,BHI5200203,Rajendra Swarnkar,17-Jan-06,,9887362314,Bhilwara,Bhilwara,rajendraswarnkar@swastika.co.in,Branch Manager,Marketing,"30,000",10,9:00-18:00,10:00-18:00,IND3600093
76,BHI8100204,Praveen Kumar Parashar,12-Oct-06,5-Aug-84,9414114275,Bhilwara,Bhilwara,praveen.parashar@swastika.co.in ,Sr. Dealer,Trading,"18,000",9,9:00-18:00,10:00-18:00,BHI5200203
77,IND5600012,Sangeeta Jadon,18-Feb-06,11-Apr-72,9893370666,Indore,Head Office,sangeeta.j@swastika.co.in,Asst Manager,Delivery,"22,000",18,9:30-18:30,10:00-18:00,IND8100024
78,BPL4200207,Saurabh Nuwal,1-Oct-04,19-Apr-74,"9302280000, 9826036500",Bhopal,Bhopal,saurabh.nuwal@swastika.co.in,Zonal Business Head,Marketing,"1,40,000",#N/A,10:00-19:00,10:00-18:00,IND1100001
79,BPL5800208,Girish Gangrade,1-Jan-05,31-Mar-74,9424568948,Bhopal,Bhopal,girishg@swastika.co.in,Branch Manager,Marketing,"33,000",0,10:30-17:30,10:00-18:00,BPL4200207
81,BPL8200210,Amrita Tiwari,4-Feb-07,12-Oct-16,9993943685,Bhopal,Bhopal,amritas@swastika.co.in,Executive,Admin,"16,500",10,9:00-18:00,10:00-18:00,BPL4200207
82,BPL8200212,Mahendra Jain,13-Feb-08,10-Aug-81,9893026175,Bhopal,Bhopal,mahendra.jain@swastika.co.in,Executive,IT,"20,900",8,8:00-17:00,10:00-18:00,BPL4200207
83,BPL8200213,Shivdas Kushwaha,1-Mar-09,23-Dec-79,9301154248,Bhopal,Bhopal,shivk@swastika.co.in,Dealer- Commodity,Trading,"13,530",6,9:00-18:00,10:00-18:00,BPL4200207
84,BPL8200216,Rupal Saxena,4-Jan-11,14-Jul-85,9926413406,Bhopal,Bhopal,rupalsaxena@swastika.co.in,Executive,Admin,"20,460",0,9:00-18:00,10:00-18:00,BPL4200207
85,BPL8200217,Anoop Bhammani,5-Jul-12,12-Feb-83,8103064408,Bhopal,Bhopal,anoop.bhammani@swastika.co.in,Executive,Admin,"16,500",4,14:30-22:30,11:00-18:00,BPL4200207
87,BPL8200223,Satish Kumar Kushwaha,1-Nov-13,13-Apr-85,9753428990,Bhopal,Bhopal,satishk@swastika.co.in,Dealer,Trading,"11,000",0,9:00-18:00,10:00-18:00,BPL4200207
88,BPL8200230,Neha Malviya,2-May-14,24-Apr-83,7879304420,Bhopal,Bhopal,neha.malviya@swastika.co.in,Executive,Accounts,"11,000",4,9:30-18:30,10:00-18:00,BPL4200207
89,HYD9100269,B Surendra,13-Jan-06,27-Jan-80,9642155092,Hyderabad,Hyderabad,b.surendra@swastika.co.in,Executive,Back Office,"8,580",12,8:30-17:30,10:00-18:00,HYD5201076
90,JPR8200283,Sanjay Shrimal,8-Jan-05,10-Mar-84,9799477030,Jaipur,Jaipur,sanjay.shrimal@swastika.co.in,Dealer,Trading,"16,800",#N/A,9:00-18:00,10:00-18:00, Giriraj Sir
91,JPR8200285,Anil Sharma,6-Feb-08,15-Aug-73,9351341813,Jaipur,Jaipur,anil.s@swastika.co.in,Dealer,Trading,"11,250",#N/A,9:00-18:00,10:00-18:00, Giriraj Sir
92,JPR8200286,Manish Gupta,10-Aug-10,24-Feb-86,9509437959,Jaipur,Jaipur,acc_jpr@swastika.co.in,Branch Executive ,Marketing ,"10,500",#N/A,9:00-18:00,10:00-18:00, Giriraj Sir
93,JPR8200292,Shyamlal ,16-Jan-14,12-Aug-87,8386988288,Jaipur,Jaipur,shyamlal@swastika.co.in,Executive,IT,"8,850",#N/A,8:00-17:00,10:00-18:00, Giriraj Sir
94,JPR5200293,Nand Kishore Sharma,1-Mar-14,13-Feb-85,9785708624,Jaipur,Jaipur,nandkishore.sharma@swastika.co.in,Branch Manager,Marketing,"45,000",3,9:00-18:00,10:00-18:00,IND3600093
95,JLG7200300,Dinesh C. Wani,3-Dec-13,31-Mar-84,9372101827,Jalgaon,Jalgaon,dinesh.wani@swastika.co.in,Branch Manager,Marketing,"25,000",0,10:30-19:30,10:00-18:00,IND3600093
96,JLG7200301,Dinesh Mahesh Dixit.,3-Dec-13,21-Nov-72,9975139166,Jalgaon,Bhusawal,dinesh.dixit@swastika.co.in,Relationship Manager,Marketing,"22,000",0,9:45-18:45,10:00-18:00,JLG7200300
97,JHS5200305,Anil Bundela,15-Jan-14,5-Dec-73,9450039275,Jhansi,Jhansi,anil.bundela@swastika.co.in,Branch Manager,Marketing,"27,720",0,9:30-18:30,10:00-18:00,IND3600093
98,KAN5200312,Kapil Kumar Tiwari,1-Apr-14,4-Dec-70,8799554103,Kanpur,Kanpur,kapil.tiwari@swastika.co.in,Branch Manager,Marketing,"25,000",0,9:30-18:30,10:00-18:00,BPL4200207
99,KAN5400313,Mohd Kashif ,1-Apr-14,18-Feb-82,8960379436,Kanpur,Kanpur,mohd.kashif@swastika.co.in,Asst. Branch Manager,Marketing,"22,500",12,9:30-18:30,10:00-18:00,BPL4200207
100,KOT4500322,Anil Nyati,1-Apr-99,5-Aug-60,9829037600,Kota,Kota  ,anil@swastika.co.in,RBM,Marketing,"125,000",#N/A,9:00-18:00,10:00-18:00,Giriraj Sir
101,KOT8200324,Laxmi  Narayan ,2-Jun-02,2-Jul-79,9784675260,Kota,Kota  ,del_kota@swastika.co.in,Executive,DP,"12,500",#N/A,9:00-18:00,10:00-18:00,Giriraj Sir
102,KOT8200325,Ritesh Nama,8-Jul-03,1-May-80,9828055011,Kota,Kota  ,riteshnama@swastika.co.in,Executive,IT,"17,000",#N/A,8:30-17:30,10:00-18:00,Giriraj Sir
103,KOT8200326,Dinesh Sharma,20-Aug-04,2-Nov-77,9414936410,Kota,Kota  ,admin_kota@swastika.co.in,Executive,Back Office,"14,000",#N/A,8:45-17:45,10:00-18:00,Giriraj Sir
104,KOT8200327,Banwarilal Bairwa,15-Sep-05,4-Oct-82,7737044939,Kota,Kota  ,banwari_kota@swastika.co.in,Executive,RMS,"13,200",#N/A,9:30-18:30,10:00-18:00,Giriraj Sir
105,KOT8200329,Pankaj Sharma,4-Dec-07,13-Apr-85,9929775785,Kota,Kota  ,pankaj.sharma@swastika.co.in,Executive,RMS,"12,400",#N/A,8:00-17:00,10:00-18:00,Giriraj Sir
106,KOT8200330,Vikram Singh,25-Feb-08,4-Apr-88,9929364297,Kota,Kota  ,kota.commodity@swastika.co.in,Executive,RMS,"12,500",#N/A,9:00-18:00,10:00-18:00,Giriraj Sir
107,KOT8200331,Jaswant Kumar,20-Sep-08,11-Jun-80,8107929168,Kota,Kota  ,jaswantkumar.rav@swastika.co.in,Executive,Back Office,"11,000",#N/A,9:00-18:00,10:00-18:00,Giriraj Sir
108,KOT8200332,Hemant Malav,3-Nov-08,11-Dec-84,9772591857,Kota,Kota  ,hemant.malav@swastika.co.in,Executive,IT,"10,800",#N/A,8:30-17:30,10:00-18:00,Giriraj Sir
109,KOT8200333,Rukmani Gaur,8-Feb-10,25-Dec-78,9251394787,Kota,Kota  ,acc_kota@swastika.co.in,Executive,Accounts,"9,200",#N/A,9:30-18:30,10:00-18:00,Giriraj Sir
110,KOT8200344,Anurag Sahni,21-Apr-14,18-Nov-90,8386884786,Kota,Kota  ,anurag.sahni@swastika.co.in,Executive,Back Office,"7,800",#N/A,9:00-18:00,10:00-18:00,Giriraj Sir
111,MUM8200349,Sunil Shevde,16-Aug-07,20-Aug-67,9220644218,Mumbai,Fort,sunilshevde@swastika.co.in,Dealer,Trading,"25,000",8,8:30-17:30,10:00-18:00,MUM5600359
113,MUM8200353,Ketan Kotrani,7-Sep-11,3-Dec-82,9920466096,Mumbai,Fort,ketan.kotrani@swastika.co.in,Dealer,Trading,"39,000",10,8:30-17:30,10:00-18:00,MUM5600359
114,MUM5600359,Bhanu Prakash Mishra,13-Mar-14,1-Sep-76,9324798887,Mumbai,Fort,bhanu.mishra@swastika.co.in,Product Head,Marketing,"50,000",0,9:30-18:30,10:00-18:00,IND3600093
115,NAG4500363,Vaibhav Palod,2-Jun-04,20-Sep-79,9850233621,Nagpur,Nagpur,vaibhav.palod@swastika.co.in,RBH,Marketing,"50,000",0,10:00-19:00,10:00-18:00,IND3600093
116,NAG8100366,Gauri Pitale,15-Apr-11,2-Apr-85,9860453482,Nagpur,Nagpur,gauri.pitale@swastika.co.in,Sr. Executive,Back Office,"9,500",#N/A,10:30-19:30,10:00-18:00,NAG4500363
117,NAG6200367,Yadnesh Maske,21-Jul-11,23-Sep-82,8055918660,Nagpur,Nagpur,Yadnesh.maske@swastika.co.in,Dealer- Commodity,Trading,"14,000",7,10:00-19:00,10:00-18:00,NAG4500363
118,NAG6600369,Om Prakash Sav,12-Feb-14,21-Mar-80,9823102242,Nagpur,Nagpur,om.prakash@swastika.co.in,Sales Manager,Marketing,"45,000",12,10:00-19:00,10:00-18:00,NAG4500363
119,NMH5200373,Jitesh Singhal,1-Aug-11,23-Aug-85,9406671989,Neemuch,Neemuch,jitesh.singhal@swastika.co.in,Branch Manager,Marketing,"22,000",0,10:30-19:30,10:00-18:00,IND5201306
120,RAI8200396,Umashankar Vasudev,6-Sep-12,27-Mar-89,9755969975,Raipur,Raipur,umashankar.vasudev@swastika.co.in,Dealer- Equity,Trading,"16,200",0,9:00-18:00,10:00-18:00,RAI5202451
121,RAT7200401,Pratyush Choudhary,1-Aug-11,28-Apr-78,9425937224,Ratlam,Ratlam,pratyush@swastika.co.in,Relationship Manager,Marketing,"30,800",1,9:00-18:00,10:00-18:00,IND3600093
122,RAT8200403,Piyusha Parashar,11-Dec-13,27-Aug-76,9424847224,Ratlam,Ratlam,piyusha.parashar@swastika.co.in,Dealer,Trading,"10,000",0,9:00-18:00,10:00-18:00,RAT7200401
123,RAT6200404,Om Prakash Sharma,16-Dec-13,8-May-82,9753774201,Ratlam,Ratlam,omprakash.sharma@swastika.co.in,Team Leader,Marketing,"17,600",6,9:00-18:00,10:00-18:00,IND3600093
124,UJN8200412,Rohit Pawar,22-Jun-11,25-Nov-89,9926660971,Ujjain,Ujjain,rohit.panwar@swastika.co.in,Dealer- Equity,Trading,"10,000",2,9:00-18:00,10:00-18:00,UJN5200413
125,UJN5200413,Ashok Singh Atal,1-Jul-11,10-Dec-84,9907810208/ 9907520001,Ujjain,Ujjain,ashok.atal@swastika.co.in,Branch Manager,Marketing,"27,500",13,10:00-19:00,10:00-18:00,IND5201306
126,UJN8200414,Jitendra Singh Thakur,2-Sep-11,19-Apr-85,9770034585,Ujjain,Ujjain,jitendra.thakur@swastika.co.in,Relationship Manager,Marketing,"22,000",5,10:00-19:00,10:00-18:00,UJN5200413
127,UJN8200416,Hemant Singh Gour,25-Feb-14,15-Mar-92,9589979218,Ujjain,Ujjain,hemant.gour@swastika.co.in,Dealer- Commodity,Trading,"9,000",0,16:00-23:30,11:00-18:00,UJN5200413
128,IND8200431,Anand Bankey,2-Jun-14,27-Oct-90,9977198046,Indore,YN Road,anand.bankey@swastika.co.in,Relationship Manager,Marketing,"18,000",6,9:30-18:30,10:00-18:00,IND4200099
129,BHI8500453,Arvind Soni,9-Jun-14,11-Aug-92,7737559992,Bhilwara,Bhilwara,arvind.soni@swastika.co.in,Dealer- Equity,Trading,"10,500",0,9:00-18:00,10:00-18:00,BHI5200203
130,BHI8500454,Ajay Sharma,28-May-14,5-May-96,8384996040,Bhilwara,Bhilwara,ajay.sharma@swastika.co.in   ,Dealaer cum Back office Ex,Trading,"10,500",#N/A,15:30-00:00,11:00-18:00,BHI5200203
131,NMH8200459,Pradeep Ahir,16-Jun-14,5-Jul-89,8889367396,Neemuch,Neemuch,pradeep.ahir@swastika.co.in,Dealer- Commodity,Trading,"12,000",0,10:00-19:00,10:00-18:00,NMH5200373
132,UJN8200467,Pooja Rathore,20-Jun-14,9-Feb-96,7440742854 & 9522234449,Ujjain,Ujjain,pooja.rathore@swastika.co.in,Dealer ,Trading ,"8,500",#N/A,9:00-18:00,10:00-18:00,UJN5200413
134,IND8200535,Harish Joshi,14-Jul-14,30-Jun-76,9425122644,Indore,Head Office,harish.joshi@swastika.co.in ,Executive,Commodity Admin,"17,000",0,19:00-04:00,11:00-18:00,IND5600021
135,IND8200541,Hemant Shikarwar,14-Jul-14,1-Apr-75,8989687575,Indore,YN Road,hemant.shikarwar@swastika.co.in ,Sr. Dealer - Equity,Trading,"14,520",0,9:00-18:00,10:00-18:00,IND3600093
136,JPR8200553,Babita Mehrotra,14-Jul-14,1-Jul-84,9530028552,Jaipur,Jaipur,babita.mehrotra@swastika.co.in,Operation Head,Back Office,"10,500",#N/A,9:00-17:00,10:00-18:00, Giriraj Sir
137,GUN5200563,Mallu Venkateswara Reddy,6-Aug-14,5-Jun-82,9160679966,Guntur,Guntur,mallu.reddy@swastika.co.in,Area Manager,Marketing,"52,500",18,9:00-18:00,10:00-18:00,IND3600093
138,GUN8200564,Venkata Murali Mohan Tatimatla,6-Aug-14,4-Aug-74,9949429734,Guntur,Guntur,venkata.tatimatla@swastika.co.in,Dealer,Trading,"13,200",13,9:00-18:00,10:00-18:00,GUN5200563
139,GUN7100565,Pulla Reddy Devarapalli,6-Aug-14,3-May-80,9948499474,Guntur,Guntur,pulla.reddy@swastika.co.in,Sr. Relationship Manager,Marketing,"24,200",12,9:00-18:00,10:00-18:00,IND3600093
140,GUN8100566,Sreenivasulu Goru,6-Aug-14,4-Apr-81,9703792525,Guntur,Guntur,sreenivasulu.goru@swastika.co.in,Sr. Executive,Marketing,"15,400",19,9:00-18:00,10:00-18:00,IND3600093
141,UDP8200570,Shambhu Singh Sisodiya,2-Aug-14,5-May-83,9983645939,Udaipur,Udaipur,shambhu.singh@swastika.co.in,Dealer- Equity,Trading,"21,000",#N/A,9:00-18:00,10:00-18:00,IND5201306
142,IND5600606,Shikha Bansal,18-Aug-14,1-Mar-89,9752247209,Indore,Head Office,shikha.bansal@swastika.co.in,Company Secretary,Compliance,"33,000",0,9:45-18:45,10:00-18:00,IND3600010
143,VAD8200630,Jignesh Vasava,1-Sep-14,25-Jun-95,7359867720,Vadodara,Vadodara,jignesh.vasava@swastika.co.in,Dealer,Trading,"9,000",0,9:00-18:00,10:00-18:00,AHD5200148
144,IND8200649,Nilesh Sethiya,10-Sep-14,24-Jun-73,9425953331,Indore,Head Office,nilesh.sethiya@swastika.co.in,Dealer- Equity,Trading,"10,500",12,9:00-18:00,10:00-18:00,IND8100031
145,JBP8200659,Amit Patkar,15-Sep-14,12-Jun-86,7415745570,Jabalpur,Jabalpur,amit.patkar@swastika.co.in,Dealer- Equity,Trading,"13,200",0,8:30-17:30,10:00-18:00,BPL4200207
146,IND8200668,Abhay Thergaonkar,19-Sep-14,4-Mar-74,9755938268/ 8435709261,Indore,Vijay Nagar,abhay.thergaonkar@swastika.co.in,Dealer- Commodity,Trading,"12,000",11,9:30-18:30,10:00-18:00,IND8100031
147,CHN4500675,Selva Kumar.J,1-Oct-14,22-Jun-80,9865571867,Chennai,Chennai,selva.kumar@swastika.co.in,Regional Head,Marketing,"75,000",0,9:15-18:15,10:00-18:00,IND3600093
148,CHN7100679,Balachandar.D ,29-Oct-14,10-Mar-90,8883838231,Chennai,Chennai,balachandar.d@swastika.co.in,Dealer- Commodity,Trading,"20,000",#N/A,9:00-18:00,10:00-18:00,CHN4500675
149,CHN6200686,Michelraj. S,1-Oct-14,4-Jun-87,9710294863,Chennai,Chennai,michelraj.s@swastika.co.in,Branch Manager ,Marketing,"25,850",0,9:30-18:30,10:00-18:00,CHN4500675
150,CHN5500691,A.Vishwanathan,1-Oct-14,8-Feb-86,8754537118,Chennai,Chennai,a.vishwanathan@swastika.co.in,Franchisee and Commodity Head,Marketing,"41,340",0,9:30-18:30,10:00-18:00,CHN4500675
151,KOT8200698,Karan Singh Solanki,24-Sep-14,27-Oct-93,9001994939,Kota,Kota  ,karan.solanki@swastika.co.in,Executive,Back Office,"7,300",#N/A,9:00-18:00,10:00-18:00,Giriraj Sir
152,DUR4300703,Somnath Banerjee ,1-Oct-14,21-Oct-74,9735144277,Durgapur,Durgapur,somnath.banerjee@swastika.co.in,Cluster Head,Marketing,"50,000",10,9:00-18:00,10:00-18:00,IND3600093
153,DUR7100707,Bivas Kumar Sarkar,7-Oct-14,4-Jan-68,9332968553,Durgapur,Durgapur,bivas.sarkar@swastika.co.in,Sr. Relationship Manager,Marketing,"18,500",11,9:00-18:00,10:00-18:00,IND3600093
154,DUR7200708,Gobinda Paul,7-Oct-14,24-Oct-81,9332427309,Durgapur,Durgapur,gobinda.paul@swastika.co.in,Relationship Manager,Marketing,"12,000",17,9:00-18:00,10:00-18:00,DUR4300703
155,DUR8200711,Binod Rajak,7-Oct-14,2-May-84,9932994851,Durgapur,Durgapur,binod.rajak@swastika.co.in,Dealer- Commodity,Trading,"9,000",15,10:00-19:00,10:00-18:00,DUR4300703
156,DUR5400712,Debdip Hazra,7-Oct-14,31-Dec-82,9333221800,Durgapur,Durgapur,debdip.hazra@swastika.co.in,Asst. Branch Manager,Marketing,"17,000",17,9:00-18:00,10:00-18:00,IND3600093
157,KOT8200714,Sarita Verma,8-Jun-09,20-May-82,9314956640,Kota,Kota  ,sarita.rahi@swastika.co.in,Executive,Back Office,"8,500",#N/A,9:30-18:30,10:00-18:00,Giriraj Sir
158,DHL8200734,Swatik Verma,11-Oct-14,23-Apr-87,9711286898   ,Delhi,Delhi,swatik.verma@swastika.co.in,Dealer,Trading,"15,000",5,14:30-22:30,11:00-18:00,DHL5201974
159,JLG8200737,Preeti Patil,13-Oct-14,8-Aug-85,7058887831,Jalgaon,Jalgaon,preeti.patil@swastika.co.in,BDM ,Marketing ,"20,000",0,9:30-18:30,10:00-18:00,JLG7200300
160,BPL8200785,Shailendra Namdev,1-Nov-14,12-Aug-78,9039556572,Bhopal,BHEL,shailendra.namdev@swastika.co.in,Asst. Branch Manager,Marketing,"16,500",0,10:00-19:00,10:00-18:00,BPL4200207
161,IND9100807,Ravi Bamniya,18-Aug-14,1-Oct-94,9977508216,Indore,Head Office,ravi.bamniya@swastika.co.in,Executive,Dispatch,"9,000",0,10:00-19:00,10:00-18:00,IND3600010
162,JLG8200819,Roshan Pandey,19-Nov-14,17-Feb-83,9527711077/ 9209490070,Jalgaon,Jalgaon,roshan.pandey@swastika.co.in,Dealer,Trading,"13,000",0,9:00-17:00,10:00-18:00,JLG7200300
163,CHN5200840,Gowrishankar. M ,5-Dec-14,26-Jun-85,9489259159,Gobichettipalayam,Gobichettipalayam,gowrishankar.m@swastika.co.in ,Branch Manager,Marketing,"33,000",0,9:30-18:30,10:00-18:00,CHN4500675
164,AUR8200846,Satish Jadhav,9-Dec-14,10-Mar-79,9673704222,Aurangabad,Aurangabad,satish.jadhav@swastika.co.in,Dealer,Trading,"13,500",0,14:55-23:55,11:00-18:00,AUR5200190
165,IND8200860,Sushant Jogdand,15-Dec-14,9-Jun-81,9425960540,Indore,Head Office,sushant.jogdand@swastika.co.in,Executive,DP,"10,000",12,9:30-18:30,10:00-18:00,IND5600016
166,IND8200892,Pritesh Panot,6-Jan-15,9-Apr-90,9589126126,Indore,YN Road,Pritesh.jain@shareshoppe.in,Senior Promotional Executive ,Shareshoppe,"15,000",2,9:00-18:00,10:00-18:00,IND4200099
167,VJW8100903,Lakshmana Rao,8-Jan-15,22-Jun-77,9866376537,Vijaywada,Vijaywada,lakshmana.rao@swastika.co.in,Sr. Dealer ,Trading,"16,000",5,9:00-18:00,10:00-18:00,IND3600093
168,VJW8200904,Gorinta Vijay Babu,8-Jan-15,19-Feb-88,9642188644,Vijaywada,Vijaywada,gorinta.babu@swastika.co.in,Dealer- Commodity,Trading,"15,000",7,16:00-23:30,11:00-18:00,IND3600093
169,IND8200909,Rahul Sharma,9-Jan-15,2-Jun-93,7879447207,Indore,Vijay Nagar,rahul.sharma@swastika.co.in,Dealer- Commodity,Trading,"10,000",1,14:30-22:30,11:00-18:00,IND7200140
170,IND8200914,Anirudh Sharma,12-Jan-15,27-Jan-90,9617179696,Indore,YN Road,anirudh.sharma@swastika.co.in,Asst. Trainer,SIFMR,"15,000",0,9:00-18:00,10:00-18:00,IND7200098
171,IND8200916,Rashi Maheshwari,3-Oct-17,23-Feb-87,9320644648,Ahmedabad,Ahmedabad,rashi.maheshwari@swastika.co.in,Operation Manager,Back Office,"18,000",4,9:00-18:00,10:00-18:00,AHD5200148
172,NAS5200917,Pramod Kumar,15-Jan-15,5-Jan-66,09175162634  ,Nasik,Nasik,pramod.kumar@swastika.co.in,Branch Manager,Marketing,"27,500",9,9:15-18:15,10:00-18:00,BPL4200207
173,IND8200932,Shweta Rawat,27-Jan-15,28-Feb-89,9179978678,Indore,YN Road,shweta.rawat@shareshoppe.in, Team Leader,Shareshoppe,"14,000",0,9:30-18:30,10:00-18:00,IND4200099
174,AKL5200938,Swapnil A. Patwari ,2-Feb-15,23-May-83,9823074492,Akola,Akola,swapnil.patwari@swastika.co.in,Branch Manager,Marketing,"34,000",0,10:30-19:30,10:00-18:00,IND3600093
175,RAJ7200956,Stanley James,3-Feb-15,11-Jun-88,7818077779,Rajkot,Rajkot,stanley.james@swastika.co.in,RM Cum Dealer,Marketing,"17,600",0,9:30-18:30,10:00-18:00,AHD5200148
176,AUR8200962,Sunil Waghchaure ,13-Feb-15,8-Aug-88,8087895848,Aurangabad,Aurangabad,sunil.waghchaure@swastika.co.in,Dealer - Equity,Trading,"8,500",16,9:00-18:00,10:00-18:00,AUR5200190
177,IND5800964,Madhu Goyal,9-Feb-15,15-Sep-82,8966095626,Indore,Head Office,madhu.goyal@swastika.co.in,Manager,Accounts - HO,"45,000",1,10:15-19:15,10:00-18:00,IND3600010
178,IND8200978,Hemant Chouhan,16-Feb-15,21-Aug-87,9179122062,Indore,YN Road,hemant.chouhan@swastika.co.in,Sales Co-ordinator,CRM,"8,500",5,13:30-18:30,10:00-18:00,IND3600093
179,VRN4800983,Abhishek Gupta,16-Feb-15,12-Jul-84,9889712899,Varanasi,Varanasi,abhishek.gupta@swastika.co.in,Area Manager,Marketing,"50,000",11,9:00-18:00,10:00-18:00,BPL4200207
180,KAN8201000,Amit Kumar Nishad,2-Mar-15,5-Jul-78,9369676282,Kanpur,Kanpur,amit.nishad@swastika.co.in,Commodity Dealer,Trading,"9,000",0,14:30-22:30,11:00-18:00,KAN5200312
181,JAM5201008,Om Prakash Yadav,2-Mar-15,20-May-77,9904182729,Jamnagar,Jamnagar,omprakash.yadav@swastika.co.in,Branch Manager,Marketing,"30,000",7,9:00-18:00,10:00-18:00,AHD5200148
182,IND8201018,Pratibha Verma,4-Mar-15,16-Jul-87,9893888677,Indore,YN Road,pratibha.verma@swastika.co.in,MIS Cordinator,Marketing,"18,000",4,9:30-18:30,10:00-18:00,IND3600093
183,PKT7201040,Ashwani Kumar,16-Mar-15,1-Feb-87,9023759859/ 7508659859,Pathankot,Pathankot,ashwani.kumar@swastika.co.in,Branch Manager,Marketing,"20,000",0,12:00-21:00,11:00-18:00,JMU5201089
184,IND8201055,Nimma Joshi,16-Mar-15,19-Sep-85,7898575868,Indore,YN Road,nimma.joshi@shareshoppe.in,Team Leader,Shareshoppe,"14,000",0,9:45-18:45,10:00-18:00,IND4200099
185,VRN7201057,Sanjay Kumar Sharma,18-Mar-15,20-Apr-86,7388645273,Varanasi,Varanasi,sanjay.sharma@swastika.co.in,Relationship Manager,Marketing,"14,000",2,9:00-18:00,10:00-18:00,VRN4800983
186,HYD5201076,S S V L Vara Prasad,1-Apr-15,30-Apr-81,9885989496,Hyderabad,Hyderabad,vara.prasad@swastika.co.in,Branch Manager,Marketing,"35,750",7,10:30-19:30,10:00-18:00,IND3600093
187,JLG7201078,Vijay Lokhande,1-Apr-15,15-Aug-75,9028092480,Jalgaon,Bhusawal,vijay.lokhande@swastika.co.in,Relationship Manager,Marketing,"13,000",13,9:00-18:00,10:00-18:00,JLG7200300
188,DHL7101081,Nisha Bhandari,1-Apr-15,,9654436448,Delhi,Delhi,nisha.bhandari@swastika.co.in,Sr. Relationship Manager,Marketing,"25,000",13,9:15-18:15,10:00-18:00,DHL5201974
189,JMU5201089,Satish Kumar,1-Apr-15,6-Apr-84,8872098618 / 9419236172,Jammu,Jammu,kumar.satish@swastika.co.in,Branch Manager,Marketing,"33,000",0,14:00-23:00,11:00-18:00,IND3600093
190,AMB5201092,Virender Sharma,6-Apr-15,18-Jan-86,7206148310,Ambala,Ambala,virender.sharma@swastika.co.in,Branch Manager,Marketing,"30,250",6,9:00-18:00,10:00-18:00,IND3600093
191,KOL8201100,Arindam Mukherjee ,9-Apr-15,17-Jul-79,9831458198,Kolkata,Kolkata,arindam.mukherjee@swastika.co.in,Sr. Relationship Manager,Marketing,"25,000",0,9:30-18:30,10:00-18:00,Vikas sir
192,DHU7201103,Dinkar Raysing More,6-Apr-15,12-May-75,8087738276,Dhuliya,Dhuliya,dinkar.more@swastika.co.in,Dealer cum RM,Marketing,"21,000",18,9:00-18:00,10:00-18:00,IND3600093
193,JMU8201109,Kamlesh Kumari,1-Apr-15,15-Nov-86,9858372522,Jammu,Jammu,kamlesh.kumari@swastika.co.in,Dealer,Trading,"10,000",0,9:00-18:00,10:00-18:00,JMU5201089
194,NAG8201114,Niraj Pathrabe,16-Apr-15,13-May-82,9503161417,Nagpur,Nagpur,niraj.pathrabe@swastika.co.in,Equity Dealer,Trading,"14,000",2,9:00-18:00,10:00-18:00,NAG4500363
195,AMR8201119,Yogesh B. Raut,14-Apr-15,13-Jun-84,9595293861,Amravati,Amravati,yogesh.raut@swastika.co.in,Dealer,Trading,"12,000",0,14:30-22:30,11:00-18:00,AMR5201811
196,VRN7201175,Mukesh Pahawa,11-May-15,25-Apr-80,"8604325201 , 9839416568",Varanasi,Varanasi,mukesh.pahawa@swastika.co.in,Relationship Manager,Marketing,"14,000",15,14:30-22:30,11:00-18:00,VRN4800983
197,IND8201178,Ganesh Singh,8-May-15,17-Feb-85,9584621818,Indore,Vijay Nagar,ganesh.singh@swastika.co.in,Dealer,Trading,"12,000",6,9:00-18:00,10:00-18:00,IND7200140
198,IND8201181,Aditi Chourey,1-May-15,25-Aug-95,9522222625,Indore,Head Office,aditi.chourey@swastika.co.in,Dealer- Equity,Trading,"5,000",0,14:00-19:00,10:00-18:00,IND5502049
199,JBP8201204,Aniket Tiwari,18-May-15,12-Apr-89,8989858404,Jabalpur,Jabalpur,aniket.tiwari@swastika.co.in,Dealer,Trading,"9,900",13,9:00-18:00,10:00-18:00,BPL4200207
200,AMB8201214,Poonam Rani,20-May-15,24-Apr-91,9991152544,Ambala,Ambala,poonam.rani@swastika.co.in,Executive,Back Office,"12,100",#N/A,9:00-18:00,10:00-18:00,AMB5201092
201,IND8201223,Ritesh Gangrade,13-May-15,9-Aug-82,9981805013,Indore,Ushanagar,ritesh.gangrade@swastika.co.in,Franchisee and Commodity Head,Trading,"11,550",14,9:00-18:00,10:00-18:00,IND5402006
202,KAR7201282,Deepak Naresh,10-Jun-15,23-Oct-86,9034210166,Karnal,Karnal,deepak.naresh@swastika.co.in,Branch Manager ,Marketing,"23,100",0,9:30-18:30,10:00-18:00,IND3600093
203,VRN8201289,Aradhana Sharma,22-Jun-15,28-Mar-90,8115727836,Varanasi,Varanasi,aradhana.sharma@swastika.co.in,Executive,Back Office,"8,800",15,9:30-18:30,10:00-18:00,VRN4800983
204,JMU8901291,Rajiv Kotwal,22-Jun-15,27-May-82,9796479869,Jammu,Jammu,rajiv.kotwal@swastika.co.in,Sales Executive,Marketing,"9,000",#N/A,9:00-18:00,10:00-18:00,JMU5201089
205,IND5201292,KC Sharma,,10-Mar-68,9827228578,Indore,Head Office,kcsharma@swastika.co.in,Director,Fin -Mart,"50,000",#N/A,16:30-20:00,10:00-18:00,IND1100001
206,BHL5201303,V.Kameswar Rao,1-Jul-15,8-May-79,9993327044,Bhilai,Bhilai,kameswar.rao@swastika.co.in,Branch Manager,Marketing,"33,000",0,9:00-18:00,10:00-18:00,IND3600093
207,BVN7201304,Amar Upadhyay,1-Jul-15,9-Jun-80,8460361331 / 9428786555,Bhavnagar,Bhavnagar,amar.upadhyay@swastika.co.in,Relationship Manager,Marketing,"15,000",5,12:00-21:00,11:00-18:00,IND3600093
208,IND5201306,Rajiv Baweja,1-Jul-15,17-Dec-71,8878117130 / 7506983335,Indore,YN Road,rajiv.baweja@swastika.co.in,Regional Head,Marketing,"42,350",#N/A,10:30-19:30,10:00-18:00,IND3600093
209,VRN7201308,Rakesh Kumar Sharma ,1-Jul-15,3-Jun-86,8115680125,Varanasi,Varanasi,rakesh.sharma@swastika.co.in,Relationship Manager,Marketing,"17,000",18,9:30-18:30,10:00-18:00,VRN4800983
210,IND8201310,Rohit Soni,1-Jul-15,3-Feb-93,8817525602,Indore,YN Road,rohit.soni@swastika.co.in,Dealer,Trading,"10,000",#N/A,9:00-18:00,10:00-18:00,IND4200099
211,IND8201311,Yashaswi Mishra,1-Jul-15,8-Feb-83,9302127323,Indore,Head Office,yashaswi.mishra@swastika.co.in,Dealer,Trading,"11,500",0,9:00-18:00,10:00-18:00,IND8100031
212,IND8201312,Pankaj Kashyap,2-Jul-15,14-Jul-86,9977777810 / 7024141416,Indore,Head Office,pankaj.kashyap@swastika.co.in,Commodity Dealer,Trading,"13,500",4,9:30-18:30,10:00-18:00,IND8100031
213,JLG8201348,Tejasvi Mahajan,21-Jul-15,12-Sep-91,9545103411,Jalgaon,Bhusawal,tejasvi.mahajan@swastika.co.in,Sales Executive,Marketing,"8,000",13,9:30-18:30,10:00-18:00,JLG7200300
214,JDP5201398,Umesh Bhandari,10-Aug-15,8-Jul-69,9001891014,Jodhpur,Jodhpur,umesh.bhandari@swastika.co.in,Branch Manager,Marketing,"25,000",4,9:00-18:00,10:00-18:00,IND5201306
215,JDP8201411,Pawan Kumar Prajapat,17-Aug-15,22-Nov-87,8824364036,Jodhpur,Jodhpur,pawan.prajapat@swastika.co.in,Executive,Back Office,"15,000",13,9:00-18:00,10:00-18:00,JDP5201398
217,IND8201444,Aditi Tamrakar,4-Sep-15,30-Mar-90,9981272503,Indore,Head Office,aditi.tamrakar@swastika.co.in,Executive,KYC,"11,250",0,10:00-19:00,10:00-18:00,IND5502049
218,VAD7201461,Gopal Suralkar,10-Sep-15,27-Aug-86,9723074475,Vadodara,Vadodara,gopal.suralkar@swastika.co.in,Sr. Relationship Manager,Marketing,"22,550",9,9:00-18:00,10:00-18:00,AHD5200148
219,IND8201489,Bhupendra Patel,1-Sep-15,25-Nov-98,8435639322,Indore,Head Office,bhupendra.patel@swastika.co.in,Executive,KYC,"10,000",0,8:00-17:00,10:00-18:00,IND5502049
220,IND7201490,Harish Bhanopiya,21-Sep-15,18-Aug-82,9644804442 / 9301973900,Indore,Airport,harish.bhanopiya@swastika.co.in,Relationship Manager cum Dealer,Marketing,"12,100",19,9:00-18:00,10:00-18:00,IND5200123
221,KHM8201512,Swapnil Gadekar,1-Oct-15,21-Dec-93,9767847784,Jalgaon,Jalgaon,swapnil.gadekar@swastika.co.in,Commodity Dealer,Trading,"8,000",0,14:30-22:30,11:00-18:00,JLG7200300
222,AMB7201540,Rajesh Kumar,13-Oct-15,9-Jan-86,9729214531,Ambala,Ambala,rajesh.kumar@swastika.co.in,Relationship Manager cum Dealer,Marketing,"19,000",13,9:00-18:00,10:00-18:00,AMB5201092
223,IND8201547,Prakash Murela,1-Nov-15,31-Dec-88,9981559569,Indore,Head Office,prakash.murela@swastika.co.in ,Dealer,Trading,"9,000",12,9:00-18:00,10:00-18:00,IND8100031
224,ALH7101552,Vikas Singh,1-Nov-15,1-Dec-87,9984547755,Allahabad,Allahabad,singh.vikas@swastika.co.in,Sr. Relationship Manager,Marketing,"18,000",0,9:00-18:00,10:00-18:00,BPL4200207
225,IND8201558,Aditi Samdani,21-Oct-15,22-Oct-95,8962409401 / 9977158107,Indore,YN Road, aditi.samdani@swastika.co.in,Business Development Executive,Marketing,"11,000",0,9:30-18:30,10:00-18:00,IND4801688
226,BPL8201561,Gajendra Singh Kaurav,28-Oct-15,15-Aug-81,9907055470,Bhopal,Bhopal,gajendra.kaurav@swastika.co.in,Commodity Dealer,Trading,"12,100",4,14:30-22:30,11:00-18:00,BPL4200207
227,BLS7201579,Dhirendra Kumar Pandey,2-Nov-15,10-Mar-85,8962001222,Bilaspur,Bilaspur,dhirendra.pandey@swastika.co.in,Sr. Dealer ,Trading,"21,667",#N/A,9:00-18:00,11:00-18:00,RAI7202367
228,BLS7201580,M Sairam ,2-Nov-15,1-Feb-71,9425543873,Bilaspur,Bilaspur,m.sairam@swastika.co.in,Sr. Dealer ,Trading,"21,667",#N/A,9:00-18:00,10:00-18:00,RAI7202367
229,IND7201595,Arjun Rajak ,19-Oct-15,17-Jul-85,9907222555,Indore,YN Road,arjun.rajak@swastika.co.in,Branch Manager,Marketing,"25,000",2,10:30-19:30,10:00-18:00,IND5201306
230,VRN7201622,Abhishek Kumar Singh ,1-Dec-15,24-Apr-86,9026247150,Varanasi ,Varanasi ,abhishek.singh@swastika.co.in ,Relationship Manager,Marketing,"14,000",14,9:00-18:00,10:00-18:00,VRN4800983
231,JHS7201661,Manoj Kumar Mali,28-Dec-15,6-Apr-82,9793864733,Jhansi,Jhansi,manoj.mali@swastika.co.in,Relationship Manager,Marketing,"14,300",#N/A,8:45-17:45,10:00-18:00,JHS5200305
232,IND8201680,Akanksha Pandey,11-Jan-16,30-Mar-91,7697252030,Indore,Head Office,"akanksha.pandey@swastika.co.in, kyc@swastika.co.in",Executive,KYC,"14,000",6,9:00-18:00,10:00-18:00,IND5502049
233,IND4801688,Rupesh Malviya,15-Jan-16,1-Jul-83,9826294333,Indore,YN Road,rupesh.malviya@swastika.co.in,Area Manager,Marketing,"35,000",11,10:30-19:30,10:00-18:00,IND3600093
234,AHD7201751,Bhaumik Gandhi,18-Feb-16,9-Aug-84,7574864577,Ahmedabad,Ahmedabad,bhaumik.gandhi@swastika.co.in,Relationship Manager,Marketing,"18,700",0,9:15-18:15,10:00-18:00,AHD5200148
235,AHD8501752,Siddharth K. Shah,12-Feb-16,20-Sep-56, 9428602656,Ahmedabad,Paldi,siddharth.shah@swastika.co.in,Assistant,Back Office,"7,200",8,9:15-18:15,10:00-18:00,AHD5200148
236,KAR8501761,Chander Kumar Mehta ,26-Feb-16,19-Nov-82,9034013435,Karnal,Karnal,chander.mehta@swastika.co.in,Dealer,Trading,"11,000",4,15:30-23:30,11:00-18:00,KAR7201282
237,IND8301762,Purnima Gupta,1-Mar-16,24-Dec-91,9755363333,Indore,Head Office,purnima.gupta@swastika.co.in,Executive,Accounts ,"10,450",0,9:00-18:00,10:00-18:00,IND5600006
238,UJN7201771,Rajpal Singh Rajput,9-Mar-16,2-Sep-91,9522197221,Ujjain,Ujjain,rajpal.rajput@swastika.co.in,Relationship Manager,Marketing,"9,000",15,9:30-18:30,10:00-18:00,UJN5200413
239,PAT7201772,Rajiv Kumar ,10-Mar-16,29-Sep-82,7301877125,Patna ,Patna ,rajiv.kumar@swastika.co.in,Relationship Manager,Marketing,"18,000",0,9:30-18:30,10:00-18:00,IND3600093
240,IND8301776,Srishty Jain,15-Mar-16,21-Jun-93,9806930338,Indore,Head Office,srishty.jain@swastika.co.in,Executive,Admin,"12,500",0,8:30-17:30,10:00-18:00,IND5600021
241,KOT8501797,Gajendra Soni ,5-Apr-16,20-Aug-86,9314006243,Kota ,Kota ,gajendra.soni@swastika.co.in,Executive ,F & O ,"8,000",#N/A,8:45-17:45,10:00-18:00,Vikas Sir
242,BPL8201809,Manoj Udde,2-May-16,6-Oct-89,9630850470,Bhopal,BHEL,manoj.udde@swastika.co.in,Dealer Commodity, Trading,"7,700",#N/A,9:00-18:00,10:00-18:00,BPL4200207
243,AMR5201811,Abhishek Bansod,26-Apr-16,4-Jul-83,"9370615494,  9527675994",Amravati,Amravati ,abhishek.bansod@swastika.co.in,Branch Manager ,Marketing,"27,500",0,9:00-18:00,10:00-18:00,NAG4500363
244,JMU7101826,Rajesh Sharma,1-May-16,8-Jan-83,"09797307445, 9419220005 ",Jammu ,Jammu ,rajesh.sharma@swastika.co.in,Sr. Relationship Manager,Marketing,"22,400",2,8:45-17:45,10:00-18:00,JMU5201089
245,IND8401837,Nidhi Sharma,11-May-16,13-Jul-90,9589444040,Indore,Head Office,nidhi.sharma@swastika.co.in,Executive ,KYC,"9,500",0,10:00-19:00,10:00-18:00,IND5502049
246,IND8401839,Abhishek Kandhawa,13-May-16,13-Nov-81,9826172212,Indore,Head Office,abhishek.kandhowa@swastika.co.in,Executive ,Admin ,"12,500",0,8:30-17:30,10:00-18:00,IND5600021
247,IND9101850,Shubham Sen ,2-Aug-16,14-Feb-95,7566551148,Indore ,Head Office,shubham.sen@swastika.co.in ,Executive ,Dispatch,8 000,0,9:30-18:30,10:00-18:00,IND5600016
248,AHD8501852,Richa K Shah,20-May-16,12-Mar-93,94088 02778,Ahmedabad,Ahmedabad,richa.shah@swastika.co.in,Executive ,Back Office ,"13,000",0,9:30-18:30,10:00-18:00,AHD5200148
249,AHD8401853,Jaykrushna Patel,11-May-16,16-Dec-85,9904867875,Ahmedabad,Ahmedabad,jaykrushna.patel@swastika.co.in ,Dealer ,Trading ,"10,000",9,9:00-18:00,10:00-18:00,BPL4200207
250,GUN8401862,Jinni Rajesh,26-May-16,7-Oct-87,9966528319,Guntur,Guntur,jinni.rajesh@swastika.co.in ,Dealer,Trading,"12,200",14,14:30-22:30,11:00-18:00,GUN5200563
251,AHD7401871,Ketan Patel ,27-Jun-16,14-Aug-85,9327367331,Ahmedabad ,Ahmedabad ,patel.ketan@swastika.co.in ,Admin Manager ,RMS,"25,000",7,8:45-17:45,10:00-18:00,AHD5200148
252,PKT7401872,Vishal Khajuria,1-Jun-16,29-Oct-82,9988167335,Pathankot ,Pathankot ,vishal.khajuria@swastika.co.in,Relationship Manager,Marketing,"14,500",19,9:15-18:15,10:00-18:00,JMU5201089
253,BPL8301874,Maneesh Kumar ,13-Jun-16,10-Sep-92,"7898949838, 9893488023",Jhansi,Jhansi,maneesh.kumar@swastika.co.in,Dealer ,Trading ,"10,000",5,9:00-18:00,10:00-18:00,BPL4200207
254,PAN5201877,Vikram Saini ,2-Jun-16,27-Feb-80,9896913002,Panipat ,Panipat ,vikram.saini@swastika.co.in,Branch Manager ,Marketing,"48,000",0,9:00-18:00,10:00-18:00,IND3600093
255,IND8501878,Rakhi Tiwari ,2-Jun-16,24-Jan-93,7863542646,Indore,YN Road,rakhi.tiwari@shareshoppe.in, Team Leader,Shareshoppe,"13,500",#N/A,9:15-18:15,10:00-18:00,IND4200099
256,IND8501881,Pawan Verma,3-Jun-16,27-Nov-90,,Indore ,YN Road,pawan.verma@shareshoppe.in ,Business Development Executive,Shareshoppe,"9,000",#N/A,9:30-18:30,10:00-18:00,IND4200099
257,IND8201882,Sunil Patidar ,7-Jun-16,1-Oct-86,9755162278,Indore,Head Office,sunil.patidar@swastika.co.in,Executive ,NBFC,"18,000",0,10:00-19:00,10:00-18:00,IND5201292
258,IND8201894,Saili Naik,13-Jun-16,8-Aug-93,9039138140,Indore ,YN Road,saili.naik@swastika.co.in ,Sr. Executive ,HR ,"14,000",6,9:15-18:15,10:00-18:00,IND1100001
259,IND8201895,Abhinaya Agrawal,1-Jul-16,3-Oct-90,7722804455,Indore ,Head Office,abhinaya.agrawal@swastika.co.in ,Executive ,RMS,"20,000",0,10:00-19:00,10:00-18:00,IND3600010
260,IND8501902,Sagar Shambhukar ,20-Jun-16,21-Nov-93,9754501439,Indore ,Head Office,sagar.shambhukar@swastika.co.in ,Executive ,Dispatch ,"9,000",0,10:00-19:00,10:00-18:00,IND3600010
261,RAT9101904,Rakesh Malviya,6-Jun-16,,7724943581,Neemuch,Neemuch,rakesh.malviya@swastika.co.in ,Dealer ,Trading ,"7,500",0,9:00-18:00,10:00-18:00,RAT7200401
262,AHM8201905,Vikram Vijay Gaikawad,23-Jun-16,16-May-83,9922278440,Ahmednagar,Ahmednagar,vikram.gaikwad@swastika.co.in ,Dealer,Trading,"12,500",13,10:00-19:00,10:00-18:00,BPL4200207
263,AGR7401918,Vikas Gupta ,27-Jun-16,7-May-86,9410000900,Agra,Agra,vikas.gupta@swastika.co.in ,Relationship Manager,Marketing,"15,000",6,9:30-18:30,10:00-18:00,BPL4200207
264,IND8401933,Kanchan Chhabra,14-Jul-16,24-Nov-16,9752400372,Indore ,Head Office,kanchan.chhabra@swastika.co.in ,Executive ,KYC ,"8,500",0,9:15-18:15,10:00-18:00,IND5502049
265,CHN7101940,Rajesh.R,6-Jul-16,31-Jul-87,9787166978,Trichy ,Trichy ,rajesh.r@swastika.co.in ,"Sr. Relationship Manager
",Marketing,"12,000",0,9:30-18:30,10:00-18:00,CHN4500675
266,IND8401959,Vishal Astoliya,18-Jul-16,2-Jun-93,"8505030841, 8871614821, ",Indore ,Head Office,vishal.astoliya@swastika.co.in ,Jr. Executive,Help Desk ,"13,500",0,8:00-17:00,10:00-18:00,IND8200067
267,IND8201967,Abhishek Pal ,26-Jul-16,3-Oct-91,9806910809,Indore ,Head Office,abhishek.pal@swastika.co.in ,Executive ,Accounts ,"12,000",0,10:00-19:00,10:00-18:00,IND5600006
268,DHL5201974,Vijay Bansal,1-Aug-16,21-Mar-88,9811656630,Delhi,Delhi,vijay.bansal@swastika.co.in, ,Marketing,"55,000",0,10:00-19:00,10:00-18:00,RAI7202367
269,IND8201975,Gautam Karnawat ,14-Sep-16,3-Nov-92,9907727754,Indore ,YN Road,gautam.karnawat@swastika.co.in,Equity Research Analyst (Trainee),Research,"11,000",0,8:00-17:00,10:00-18:00,IND8100108
270,IND8301977,Akash Sharma,16-Aug-16,2-Jan-91,9179777437,Indore,Head Office,akash.sharma@swastika.co.in ,Executive ,Admin ,"12,000",0,8:45-17:45,10:00-18:00,IND5600021
271,GWL8401979,Anjali Marothiya,3-Aug-16,25-Oct-82,9926448235,Gwalior ,Gwalior ,anjali.marothiya@swastika.co.in ,Dealer ,Trading ,"7,700",6,9:00-18:00,10:00-18:00,BPL4200207
272,KOL7401981,Binod Kumar Hela ,3-Aug-16,28-Nov-87,9830768524,Kolkata,Kolkata,binod.hela@swastika.co.in,Relationship Manager ,Marketing,"16,000",0,9:30-18:30,10:00-18:00,Vikas Sir
273,LUD5401983,Tarun Sharma,6-Aug-16,24-Mar-81,8847264643,Ludhiana,Ludhiana,tarun.sharma@swastika.co.in ,Branch Manager,Marketing,"27,000",16,10:00-19:00,10:00-18:00,IND3600093
274,IND8101996,Nirpendra Yadav,16-Aug-16,28-Jan-84,9039095682,Indore,YN Road,nirpendra.yadav@swastika.co.in,Sr. Commodity Research Analyst,Research,"20,000",4,14:30-22:30,11:00-18:00,IND8100108
275,IND8501999,Neha Rathore,19-Aug-16,1-Aug-93,9752729297,Indore,YN Road,neha.rathore@swastika.co.in,Sr.Executive,Compliance,"18,750",0,9:30-18:30,10:00-18:00,IND5600606
276,PAT8202005,Dhananjay Kumar ,23-Aug-16,20-Oct-88,9771627907,Patna ,Patna ,dhananjay.kumar@swastika.co.in,Dealer ,Trading ,"10,500",16,9:30-18:30,10:00-18:00,PAT7201772
277,IND8402011,Anuradha Jaiswal,5-Sep-16,20-Feb-92,9165746222,Indore ,Head Office,anuradha.jaiswal@swastika.co.in ,Executive ,KYC ,"9,500",0,10:00-19:00,10:00-18:00,IND5502049
278,IND5402006,Bhupendra Dixit,29-Aug-16,2-Jun-69,7869731193,Indore ,Usha Nagar ,bhupendra.dixit@swastika.co.in ,Asst. Branch Manager ,Marketing,"20,000",7,9:15-18:15,10:00-18:00,IND3600093
279,BRL5102015,Neelesh Mathur ,1-Sep-16,5-May-80,9412295045,Bareilly ,Bareilly ,neelesh.mathur@swastika.co.in ,Sr. Branch Manager ,Marketing,"30,000",0,10:00-19:00,10:00-18:00,BPL4200207
280,JAM8402017,Sikandar k Qureshi ,1-Sep-16,15-Oct-81,9924398707,Jamnagar ,Jamnagar ,sikandar.qureshi@swastika.co.in,Dealer ,Trading ,"9,000",7,9:00-18:00,10:00-18:00,JAM5201008
281,KOL7402019,Pratyush Mondal,1-Sep-16,15-Aug-77,8961864001,Kolkata,Kolkata,pratyush.mondal@swastika.co.in ,Relationship Manager ,Marketing,"17,000",0,9:30-18:30,10:00-18:00,Vikas Sir
282,VIS5202034,Ramaraju Atti,15-Sep-16,11-May-79,9985735992,Vishakhapatnam ,Vishakhapatnam ,ramaraju.atti@swastika.co.in,Branch Manager ,Marketing ,"20,000",18,9:00-18:00,10:00-18:00,IND3600093
283,RAT8402041,Vinod Giri Goswami,19-Sep-16,24-Aug-76, 98274 45722,Ratlam ,Ratlam ,vinod.goswami@swastika.co.in ,Dealer ,Trading ,"12,500",0,9:00-18:00,10:00-18:00,RAT7200401
284,IND5502049,J.S Uday Bhaskar ,4-Oct-16,30-Mar-69,9753268764,Indore ,Head Office,uday.bhaskar@swastika.co.in ,General Administration Manager,MIS ,"30,000",10,10:00-19:00,10:00-18:00,IND3600010
285,IND8402051,Deepika Khandelwal ,7-Oct-16,,7470614486,Indore ,Head Office,deepika.khandelwal@swastika.co.in ,Executive ,F & O,"9,500",0,9:30-18:30,10:00-18:00,IND5600008
286,IND8402054,Manisha Patil ,14-Oct-16,8-Aug-94,8871634124,Indore ,Head Office,manisha.patil@swastika.co.in  ,Executive ,Dispatch ,"9,500",0,9:00-18:00,10:00-18:00,IND5600006
287,BPL8302056,Deepak Singh ,17-Oct-16,10-Jun-95,9074668223,Bhopal ,Bhopal ,deepak.singh@swastika.co.in ,Executive ,Marketing ,"10,000",0,10:30-19:30,10:00-18:00,BPL4200207
288,MDU5402071, V. Rajkumar,7-Nov-16,7-Apr-89,9524540988,Madurai,Madurai,v.rajkumar@swastika.co.in ,Asst. Branch Manager,Marketing,"20,000",4,9:30-18:30,10:00-18:00,CHN4500675
289,NAG8102069,Sharad Samaiya Jain,26-Oct-16,20-Oct-73,8983794331,Nagpur,Nagpur,sharad.samaiya@swastika.co.in,Sr. Dealer,Trading,"16,000",6,8:45-17:45,10:00-18:00,NAG4500363
290,ALH5202079,Sachin Dwivedi,7-Nov-16,5-Dec-88,919455230408 9696371559,Allahabad ,Allahabad ,sachin.dwivedi@swastika.co.in,Branch Manager ,Marketing ,"25,000",0,9:00-18:00,10:00-18:00,BPL4200207
291,AHD8202093,Krunal Rana ,28-Nov-16,5-Jan-88,9924796272,Ahmedabad ,Ahmedabad ,krunal.rana@swastika.co.in ,Dealer ,Trading ,"12,000",0,16:30-23:30,11:00-18:00,AHD5200148
292,AHD8202101,Chintan Darji ,1-Dec-16,8-Jul-85,9328111621,Ahmedabad ,Ahmedabad ,chintan.darji@swastika.co.in ,Executive ,Back Office ,"15,000",9,9:30-18:30,10:00-18:00,ALH7101552
293,BPL8302104,Pranjul Verma    ,1-Dec-16,24-Sep-84,9179821327,Bhopal  ,BHEL,pranjul.verma@swastika.co.in ,Dealer ,Trading ,"10,000",4,9:00-18:00,10:00-18:00,BPL4200207
294,BPL8402109,Abhishek Tiwari ,6-Dec-16,21-Dec-93,8871721729,Bhopal ,Bhopal ,abhishek.tiwari@swastika.co.in ,Executive ,KYC ,"10,500",2,9:30-18:30,10:00-18:00,BPL4200207
295,CHN8302114,K. Subabharathi,19-Dec-16,15-Mar-93,9842544350,Chennai ,Chennai ,subabharathi@swastika.co.in ,Executive ,Back Office ,"10,000",1,9:00-18:00,10:00-18:00,CHN4500675
296,PAT8302116,Roshan Jahan ,14-Dec-16,,9534606020,Patna ,Patna ,roshan.jahan@swastika.co.in ,Executive ,Back Office ,"10,500",0,9:00-18:00,10:00-18:00,PAT7201772
297,IND8202123,Dinesh Pal ,26-Dec-16,20-Dec-90,7828545223,Indore ,YN Road ,dinesh.pal@swastika.co.in ,Dealer Cum RM,Trading ,"20,000",#N/A,9:00-18:00,10:00-18:00,IND7201595
298,HYD8302126,Kondaiah Bojja ,19-Dec-16,4-Jun-95,8886544527,Hyderabad,Hyderabad,kondaiah.bojja@swastika.co.in ,Commodity Dealer ,Trading ,"9,500",14,10:00-18:30,10:00-18:00,HYD5201076
299,BPL8402135,Vinay Raikwar ,2-Jan-17,29-Jul-79,8889523751,Bhopal ,Bhopal ,vinay.raikwar@swastika.co.in ,Dealer ,Trading ,"9,000",0,8:30-17:30,10:00-18:00,BPL4200207
300,KOL8202147,Shruti Sudha Sarkar,17-Jan-17,26-Dec-93,9007367525,Kolkata,Kolkata,shruti.sarkar@swastika.co.in,Dealer,Trading,"10,000",#N/A,9:15-18:15,10:00-18:00,Vikas Sir
301,BRL8102149,Sachin Sharma,20-Jan-17,5-Apr-80,9690763576,Bareilly,Bareilly,sachin.sharma@swastika.co.in ,Sr. Dealer,Trading ,"12,000",5,14:30-22:30,11:00-18:00,BRL5102015
302,PUN4802152,Suyog Moholkar,27-Jan-17,15-Apr-85,9850902680,Pune ,Pune ,suyog.moholkar@swastika.co.in ,Area Manager,Marketing,"37,500",0,9:30-18:30,10:00-18:00,IND4200099
303,BRL7402156,Deeksha Kumari,27-Jan-17,1-Mar-93,895800891,Bareilly,Bareilly,deeksha.kumari@swastika.co.in,Sr. Relationship Manager,Marketing,"17,600",2,9:00-18:00,10:00-18:00,BRL5102015
304,BRL7402157,Anoop Kumar,27-Jan-17,1-Jul-82,9917944795,Bareilly,Bareilly,anoop.kumar@swastika.co.in,Dealer cum RM,Marketing,"16,800",4,9:00-18:00,10:00-18:00,BRL5102015
305,BBR5402163,Dillip Kumar Behera,30-Jan-17,10-Feb-85,9776551826,Bhubaneswar ,Bhubaneswar ,dillip.behera@swastika.co.in ,Asst. Branch Manager ,Marketing ,"25,000",4,9:00-18:00,10:00-18:00,Vikas sir
306,MUM5202167,Shharad M Jain,1-Feb-17,2-Nov-76,9619006767,Mumbai,Andheri,shharad.jain@swastika.co.in ,Branch Manager,Marketing,"40,000",5,8:30-17:30,10:00-18:00,IND4200099
307,AKL8202168,Akshay Chandrani ,1-Feb-17,,,Akola ,Akola ,akshay.chandrani@swastika.co.in,Dealer ,Trading ,"8,000",3,9:00-18:00,10:00-18:00,AKL5200938
308,GWL8202182,Sumit Upadhyay,9-Feb-17,25-Nov-87,7000248556,Gwalior ,Gwalior ,sumit.upadhyay@swastika.co.in ,Dealer ,Trading ,"15,000",6,15:30-23:30,11:00-18:00,IND4200099
309,AGR7102187,Amit Kumar Garg,15-Feb-17,8-Apr-84,9319894548,Agra ,Agra ,amit.garg@swastika.co.in ,Sr. Relationship Manager ,Marketing ,"25,000",10,9:30-18:30,10:00-18:00,BPL4200207
310,MUM8202192,Veerendra Hiremath,13-Feb-17,25-May-76,9822602873,Mumbai ,Andheri ,veerendra.hiremath@swastika.co.in,Dealer ,Trading ,"15,000",11,8:30-17:30,10:00-18:00,IND4200099
311,VRN7402197,Hariom Sharan ,21-Feb-17,15-Jul-88,8090278898,Varanasi ,Varanasi Mandi,hariom.sharan@swastika.co.in,Relationship Manager ,Marketing ,"11,000",8,9:00-18:00,10:00-18:00,VRN4800983
312,IND8402201,Tapas Majumdar ,27-Feb-17,,7415797989,Indore ,Head Office,tapas.majumdar@swastika.co.in ,Executive ,KYC ,"10,000",0,9:30-18:30,10:00-18:00,IND5502049
313,PKT7102202,Ravinder Singh Pathania,27-Feb-17,11-Oct-80,8447013036,Pathankot ,Pathankot ,ravinder.pathania@swastika.co.in ,Sr. Relationship Manager ,Marketing ,"18,000",6,9:30-18:30,10:00-18:00,JMU5201089
314,IND5802207,Pratik Jain ,1-Mar-17,2-May-93,8319932859,Indore ,Head Office,pratik.jain@swastika.co.in ,Asst. Manager ,Accounts ,"25,000",10,9:30-18:30,10:00-18:00,IND5600006
315,IND8202210,Raksha Jaiswal,1-Mar-17,28-Aug-96,9039669981,Indore ,YN Road,raksha.jaiswal@shareshoppe.in ,Telecaller,Shareshoppe,"10,000",5,9:45-18:45,10:00-18:00,IND4200099
316,IND8202211,Ajay Khichi,16-Mar-17,14-Nov-89,9039090606,Indore ,YN Road,ajay.khichi@swastika.co.in ,Trainee ,Research (Commodity),"9,000",3,8:30-17:30,10:00-18:00,IND8100108
317,MUM8202212,Divya J. Shah,1-Mar-17,24-Sep-93,8108973491,Mumbai ,Fort ,divya.shah@swastika.co.in ,Back Office Cum Dealer ,Trading ,"16,000",5,9:00-18:00,10:00-18:00,IND4200099
318,AHD8202214,Motiwala Moin Iqbal Bhai,1-Mar-17,3-Feb-95,8238166940,Ahmedabad,Paldi ,iqbal@swastika.co.in ,Dealer ,Trading ,"8,000",7,9:00-18:00,10:00-18:00,ALH7101552
319,CHN7402216,M.Velazhagan,6-Mar-17,17-Jul-73,8939267232,Chennai ,Chennai ,velazhagan@swastika.co.in ,Relationship Manager ,Marketing ,"17,000",0,9:00-18:00,10:00-18:00,CHN4500675
320,COM7402224,Arulsamy Thangaraj.T,15-Mar-17,30-Jun-90,9003303103,Coimbatore,Coimbatore,arulsamy.thangaraj@swastika.co.in ,Relationship Manager,Marketing,"12,000",4,9:30-18:30,10:00-18:00,CHN4500675
321,BGL7402226,T.R Krishna Kumar,15-Mar-17,22-Nov-83,9880400758,Bangalore ,Bangalore ,Krishna.kumar@swastika.co.in ,Relationship Manager ,Marketing ,"21,000",3,9:00-18:00,10:00-18:00,BGL5200194
322,IND8302230,Neha Goutam,4-Apr-17,8-Apr-89,8962334059,Indore ,Head Office ,neha.goutam@swastika.co.in ,Executive ,DP,"8,000",0,9:30-18:30,10:00-18:00,IND5600016
323,IND8202231,Mohit Goyal ,21-Mar-17,4-Aug-93,8889997252,Indore ,Head Office,mohit.goyal@swastika.co.in ,Asst. Manager ,Merchant Banking,"20,000",2,10:00-19:00,10:00-18:00,IND3600010
324,IND8302232,Nitesh Parate ,1-Apr-17,18-Nov-93,"7566155777, 0731-4057996",Indore ,Head Office,nitesh.parate@swastika.co.in ,Executive ,KYC ,"9,500",4,10:00-19:00,10:00-18:00,IND5502049
325,IND8202236,Vikas Mali ,23-Mar-17,3-Jul-87,8878953685,Indore ,Head Office,vikas.mali@swastika.co.in ,Jr. Executive ,IT ,"12,000",10,19:00-04:00,19:00-04:00,IND5600009
326,IND6402239,Jyoti Kothari ,27-Mar-17,14-Oct-87,8982358160,Indore,Head Office,jyoti.kothari@swastika.co.in,Asst. Manager ,NBFC,"30,000",0,10:00-19:00,10:00-18:00,IND5201292
327,BGL5402240,Kundan Kumar,27-Mar-17,1-Mar-77,9241493143,Bangalore ,Bangalore ,kundan.kumar@swastika.co.in ,Branch Manager ,Marketing ,"55,000",6,9:00-18:00,10:00-18:00,IND3600093
328,IND8202254,Prasann Shatani ,27-Mar-17,27-Dec-75,9826975313,Indore ,YN Road ,prasan.shatani@shareshoppe.in,Business Development Executive ,Shareshoppe,"10,000",5,9:30-18:30,10:00-18:00,IND4200099
329,IND8302258,Neha Solanki ,5-Apr-17,25-Jun-95,8719833635,Indore,Head Office ,neha.solanki@swastika.co.in ,Executive ,KYC ,"6,500",0,9:30-18:30,10:00-18:00,IND5502049
330,IND8202259,Vijay Tambe ,10-Apr-17,27-Dec-88,9098492229,Indore,Head Office,vijay.tambe@swastika.co.in ,Executive ,Help Desk ,"12,000",5,9:00-18:00,10:00-18:00,IND8200067
331,SRT5202264,  Asmatkhan Pathan,10-Apr-17,23-Oct-89,9898227056,Surat ,Surat ,asmatkhan.pathan@swastika.co.in ,Branch Manager ,Marketing ,"35,000",5,10:30-19:30,10:00-18:00,AHD5200148
332,SRT7402265,Ankit Prajapati,10-Apr-17,3-Jan-93,8866660170,Surat ,Surat ,ankit.prajapati@swastika.co.in ,RM Cum Dealer ,Marketing ,"20,000",6,9:00-18:00,10:00-18:00,SRT5202264
333,SRT7402266,Juned Gulamnabi Shaikh,10-Apr-17,10-Oct-89,9726372717,Surat ,Surat ,juned@swastika.co.in ,Relationship Manager ,Marketing ,"18,500",6,9:00-18:00,10:00-18:00,SRT5202264
334,BPL8302267,Rimika Tiwari ,12-Apr-17,13-Oct-92,9644076681,Bhopal ,Bhopal ,rimika.tiwari@swastika.co.in ,Executive ,Front Office ,"8,500",2,9:30-18:30,10:00-18:00,BPL4200207
335,IND8202270,Shubham Soni ,10-Apr-17,25-Mar-94,8349966831,Indore,Annapurna,shubham.soni@swastika.co.in,Dealer ,Trading ,"9,000",5,9:00-18:00,10:00-18:00,IND7200124
336,IND8202276,Sapna Pardeshi ,25-Apr-17,11-Oct-92,7024829132,Indore ,Head Office,sapna.pardeshi@swastika.co.in ,Executive ,Accounts ,"8,000",4,9:30-18:30,10:00-18:00,IND5600006
337,IND8202280,Kunal Sen,26-Apr-17,26-Jan-88,7566599659,Indore ,YN Road ,kunal.sen@shareshoppe.in ,Business Development Executive ,Shareshoppe,"10,000",4,9:00-18:00,10:00-18:00,IND4200099
338,LUC7402282,Deepak Kumar ,26-Apr-17,6-Jan-91,9198964444,Lucknow ,Lucknow ,deepak.y@swastika.co.in ,Relationship Manager,Marketing,"11,000",4,9:00-18:00,10:00-18:00,BPL4200207
339,VIS5202284,Srinivasa Reddy Shivannagari   ,26-Apr-17,5-Aug-76,9347078430,Vishakhapatnam ,Vishakhapatnam ,srinivasa@swastika.co.in,Branch Manager ,Marketing ,"18,000",9,9:00-18:00,10:00-18:00,IND3600093
340,IND8202290,Rashi Singhai,22-May-17,12-Nov-94,8435615545,Indore,Head Office,rashi.singhai@swastika.co.in,Executive,HR,"12,000",3,9:30-18:30,10:00-18:00,IND1100001
341,AKL7402294,Kulbhushan Sunil Bharuka,5-May-17,22-Sep-90,920989619,Akola,Akola,kulbhushan@swastika.co.in,Relationship Manager,Marketing,"12,000",3,14:30-22:30,11:00-18:00,AKL5200938
342,SRT7202299,Rahul N Makwana,8-May-17,25-Aug-92,9712574313,Surat ,Surat ,rahul.m@swastika.co.in,Relationship Manager,Marketing,"18,500",6,9:00-18:00,10:00-18:00,SRT5202264
343,KOR7202301,Sunny Kumar,1-Jun-17,28-Jan-92,7724927377,Korba,Korba,sunny.kumar@swastika.co.in,Asst. Branch Manager,Marketing,"16,000",#N/A,9:00-18:00,10:00-18:00,IND3600093
344,PAT7402304,Ravi Kant Singh,12-May-17,8-Jan-87,9905084581,Patna ,Patna ,ravikant.s@swastika.co.in,Dealer, Trading,"10,500",6,9:00-18:00,10:00-18:00,PAT7201772
345,KOT8502308,Urvashi Verma,9-May-17,11-Nov-82,8739902425,Kota,Kota,urvashi.verma@swastika.co.in,Executive,KYC,"7,500",#N/A,9:00-18:00,10:00-18:00,Giriraj Sir
346,DUR8402317,Saugata Bandyopadhyay,26-May-17,21-Jan-76,9836725259,Durgapur,Durgapur,saugata.b@swastika.co.in,Dealer ,Trading ,"10,000",8,9:00-18:00,10:00-18:00,DUR4300703
347,GWL7202318,Pradeep Kandoi,26-May-17,4-Mar-83,9303046135,Gwalior , Gwalior,pradeep.k@swastika.co.in, Asst. Branch Manager,Marketing,"25,000",3,9:00-18:00,10:00-18:00,BPL4200207
348,CHN8202320,Sakthi Ganapathi.S,26-May-17,22-Apr-97,9524702029,Madurai,Madurai,sakthi.g@swastika.co.in,Executive,Marketing,"10,000",5,9:00-18:00,10:00-18:00,CHN4500675
349,LUD8202323,Geetika Batra,26-May-17,25-Sep-97,7888909242,Ludhiana,Ludhiana,geetika.batra@swastika.co.in,Dealer cum Back Office ,Trading,9:00-18:00,3,9:00-18:00,10:00-18:00,LUD5401983
350,JLN7402324,Gurpreet Singh,29-May-17,19-Apr-90,9988598181,Jalandhar ,Jalandhar ,gurpreet.s@swastika.co.in,Relationship Manager,Marketing,"10,000",5,9:00-18:00,10:00-18:00,JMU5201089
351,LUD5202325,Jaspreeet Singh,10-Jun-17,3-Jan-83,9988463434,Ludhiana,Ludhiana,jaspreet.singh@swastika.co.in,Branch Manager ,Marketing,"30,000",6,9:00-18:00,10:00-18:00,IND3600093
352,IND8402334,Rajat Chaturvedi,5-Jun-17,5-Oct-93,9630929857,Indore ,Head Office,rajat.chaturvedi@swastika.co.in,Executive, F & O,"10,000",4,9:30-18:30,10:00-18:00,IND5600008
353,BVN8502340,Nayan Dineshkumar Parmar,7-Jun-17,17-Apr-87,9898917576,Bhavnagar,Bhavnagar,nayan.p@swastika.co.in,Dealer,Trading,"7,500",8,9:00-18:00,10:00-18:00,BVN7201304
354,IND8202342,Ratna Rajvaidhya,12-Jun-17,12-Jul-90,8871769581,Indore ,YN Road,ratna.r@swastika.co.in,Executive,HR,"12,000",6,9:00-18:00,10:00-18:00,IND1100001
355,IND8402346,Rahul Choudhary,13-Jun-17,18-Jun-92,9179268143,Indore ,Head Office,rahul.choudhary@swastika.co.in,Executive,NBFC,"8,000",6,10:00-19:00,10:00-18:00,IND5201292
356,LUD7402350,Jaswinder Singh,15-Jun-17,6-Feb-83,9814348840,Ludhiana,Ludhiana,jaswinder.singh@swastika.co.in,Sr. Relationship Manager,Marketing,"22,917",5,9:00-18:00,10:00-18:00,IND3600093
357,IND7302357,Sachin Kumar,22-Jun-17,16-Apr-88,8109800958,Indore ,Head Office,sachin.k@swastika.co.in ,Executive ,Compliance,"12,500",5,9:30-18:30,10:00-18:00,IND5600606
358,IND8202363,Shikha Sharma,29-Jun-17,21-Jun-16,9406863628,Indore ,Head Office,shikha.sharma@swastika.co.in,Executive,DP,"9,000",4,9:30-18:30,10:00-18:00,IND5600016
359,IND8402110,Ajay Kumar Bandhey,15-Jun-17,9-Aug-91,8817301598,Indore ,YN Road ,"ajay.bandhey@swastika.co.in , ipo@swastika.co.in ",Executive ,TPP Distribution,"9,000",4,9:30-18:30,10:00-18:00,IND7200063
360,RAI7202367,Shailendra Kumar Verma,1-Jul-17,12-Jun-85,7389289900,Raipur,Raipur,shailendra.verma@swastika.co.in,Area Manager,Marketing,"25,000",7,9:30-18:30,10:00-18:00,IND3600093
361,IND8202368,Priyanka Shevale,1-Jul-17,24-Jul-85,9009777090,Indore ,Head Office,priyanka.shevale@swastika.co.in, Executive,CRD (Client Relationship Department),"20,000",3,9:00-16:00,9:00-16:00,IND1100001
362,TRC8402373,T. Radhika,7-Jul-17,19-Aug-82,9629655110,Trichy,Trichy,radhika.trichy@swastika.co.in,Dealer,Trading,"8,500",3,8:45-17:45,10:00-18:00,CHN4500675
363,IND8202374,Gaurav Telang,10-Jul-17,10-Jan-83,9826980402,Indore ,Head Office,gaurav.t@swastika.co.in, Executive,IT,"15,000",3,7:00-16:00,10:00-18:00,IND5600009
364,AHD5602376,Nemika Gohel,11-Jul-17,12-May-94,9408056643,Ahmedabad,Ahmedabad,nemika.g@swastika.co.in,Franchise Manager,Marketing,"12,000",3,9:30-18:30,10:00-18:00,AHD5200148
365,IND8202379,Pankaj Pise ,26-Jun-17,21-Jul-75,8989688046,Indore ,Head Office,pankaj.pise@swastika.co.in, Executive,IT,"14,000",5,22:00-07:00,22:00-07:00,IND5600009
366,KOL8202380,Rahat Wahab,18-Jul-17,25-Aug-88,9674113419,Kolkata,Kolkata,rahat.wahab@swastika.co.in,RM cum Telecaller,Marketing,"12,000",5,9:30-18:30,10:00-18:00,Vikas Sir
367,AGR8202385,Sanjay Kumar Mishra,17-Jul-17,30-Apr-75,8979819908,Agra,Agra,sanjay.mishra@swastika.co.in,Dealer Cum RM , Trading,"10,000",4,14:30-22:30,11:00-18:00,AGR7102187
368,DHL8402388,Saurabh Dwivedi,24-Jul-17,22-Jul-87,8287220499,Delhi,Delhi,saurabh.dwivedi@swastika.co.in,Back Office Executive cum Dealer,Trading,"14,000",5,9:00-18:00,10:00-18:00,DHL5201974
369,IND7202389,Austin Peter,25-Jul-17,4-Oct-85,7806007077,Indore ,Head Office,austin.peter@swastika.co.in,Gold Loan Division Head,NBFC,"25,000",2,10:00-19:00,10:00-18:00,IND5201292
370,IND8202392,Rajat Soni,28-Jul-17,20-Jun-95,8109093268,Indore,YN Road,rajat.soni@swastika.co.in,Dealer,Shareshoppe,"10,000",#N/A,9:00-18:00,10:00-18:00,IND4200099
371,JHS8202395,Pinki Soni,1-Aug-17,21-Oct-87,9451264416,Jhansi,Jhansi,pinki.soni@swastika.co.in,Relationship  Manager,Marketing,"10,000",5,9:00-18:00,10:00-18:00,JHS5200305
372,KAR8202397,Ashish Kumar,26-Jul-17,3-Jul-89,9719316431,Karnal,Karnal,ashish.kumar@swastika.co.in,Relationship Manager,Marketing,"10,000",4,9:00-18:00,10:00-18:00,KAR7201282
373,DHL8202400,Kajal Rawat,7-Aug-17,11-Mar-99,9718839181,Delhi,Delhi,kajal.rawat@swastika.co.in,Executive,Back Office,"10,000",4,9:00-18:00,10:00-18:00,DHL5201974
374,TRC8202402,M. Ravi,9-Aug-17,22-Jul-86,9787818213,Trichy,Trichy,m.ravi@swastika.co.in,Relationship Manager,Marketing,"12,000",0,9:00-18:00,10:00-18:00,CHN4500675
375,GOB7402407,Venkatesh ,17-Aug-17,3-May-88,8946032663,Gobichettipalayam,Gobichettipalayam,venkatesh.g@swastika.co.in,Asst Branch Manager,Marketing,"17,000",4,9:30-18:30,10:00-18:00,CHN4500675
376,IND8202408,Sanjeev Kumar Shrivas,17-Aug-17,1-May-85,9009386016,Indore,YN Road,"sanjeev.shrivas@swastika.co.in, branchinfra@swastika.co.in",Executive ,IT,"13,000",0,8:45-17:45,10:00-18:00,IND5600009
377,IND8202410,Prayas Somani,21-Aug-17,29-Oct-94,8109229866,Indore,Head Office,prayas.somani@swastika.co.in,Executive ,Accounts,"9,000",0,9:30-18:30,10:00-18:00,IND5600006
378,CHN8202414,S Saraswathi,28-Aug-17,6-Dec-92,9629510601,Chennai,Chennai,saraswathi@swastika.co.in,Dealer- Equity,Trading,"13,000",0,9:00-18:00,10:00-18:00,CHN4500675
379,NAS5202415,Rakesh Subhash Patil,22-Aug-17,30-Jan-84,8329229929,Nasik,Nasik,rakesh.patil@swastika.co.in,Branch Manager,Marketing,"40,000",4,9:00-18:00,10:00-18:00,BPL4200207
380,BPL8202416,Narendra Soni ,28-Aug-17,21-Sep-91,8878370687,Bhopal,Bhopal,narendra.soni@swastika.co.in,Dealer- Equity,Trading,"10,000",4,9:00-18:00,10:00-18:00,BPL4200207
381, IND7402417,Shruti Vyas,1-Sep-17,6-Aug-91,9893966091,Indore,Head Office,shruti.vyas@swastika.co.in,Asst. Manager,Compliance,"16,750",4,9:30-18:30,10:00-18:00,IND5600606
382,AMB8202419,Parveen Kumar,1-Sep-17,6-Sep-85,8569889993,Ambala,Ambala,praveen.k@swastika.co.in,Relationship Manager,Marketing,"14,000",4,9:00-18:00,10:00-18:00,AMB5201092
383,IND8202422,Sweety Upadhyay,1-Sep-17,8-Nov-98,9179913668,Indore,YN Road,sweety.upadhyay@swastika.co.in,Dealer,Trading,"10,000",0,9:00-18:00,10:00-18:00,IND7201595
384,IND8202423,Lokesh Somia,2-Sep-17,18-Jul-92,9462120890,Indore,Head Office,lokesh.somia@swastika.co.in,Executive ,Accounts,"13,500",0,10:00-19:00,10:00-18:00,IND5600006
385,IND5202424,Heena Nandwani,2-Sep-17,11-Apr-92,8109490010,Indore,Head Office,heena.nandwani@swastika.co.in,Asst. Manager,Compliance,"25,000",0,9:30-18:30,10:00-18:00,IND5600606
386,IND8202427,Ruchika Mittal,4-Sep-17,9-Jan-93,8871357881,Indore,YN Road,ruchika.mittal@swastika.co.in,Trainee ,Compliance,"3,000",3,9:30-18:30,10:00-18:00,IND5600606
387,VRN8202429,Aftab Babu,5-Sep-17,8-Aug-94,8354973768,Varanasi,Varanasi Mandi,aftab.babu@swastika.co.in,Relationship Manager,Marketing,"10,000",4,9:00-18:00,10:00-18:00,VRN4800983
388,IND8202430,Shubham Pal,6-Sep-17,20-Oct-96,7869366377,Indore,YN Road,shubham.pal@swastika.in,Relationship Manager,Marketing,"12,000",4,9:30-18:30,10:00-18:00,IND5201306
389,UDP8202432,Madhav Singh Chouhan,6-Sep-17,2-Mar-91,9636124145,Udaipur,Udaipur,madhav.singh@swastika.co.in,Dealer,Trading,"12,000",0,9:00-18:00,10:00-18:00,UDP8200570
390,IND8202433,Amit Khandelwal,7-Sep-17,4-Jul-94,7504543078,Indore,Head Office,amit.khandelwal@swastika.co.in,Executive ,Help Desk,"10,000",0,10:00-19:00,10:00-18:00,IND8200067
391,IND8402435,Reena Sharma,20-Sep-17,25-Mar-94,7240956165,Indore,Head Office,reena.sharma@swastika.co.in,Executive ,KYC,,0,9:30-18:30,10:00-18:00,IND5502049
392,PUN7402437,Amol Sharma,11-Sep-17,17-Oct-84,7028256774,Pune,Pune,amol.sharma@swastika.co.in,Dealer,Trading,"14,000",0,8:30-17:30,10:00-18:00,IND4200099
393,PAT8202438,Reyaz Ali,11-Sep-17,15-May-93,8409333384,Patna,Patna,reyaz.ali@swastika.co.in,Relationship Manager,Marketing,"12,000",4,9:00-18:00,10:00-18:00,PAT7201772
394,JBP8202440,Abhishek Sahu,13-Sep-17,11-Mar-89,9584069837,Jabalpur ,Jabalpur,abhishek.sahu@swastika.co.in,Executive,Marketing,"12,000",4,9:00-18:00,10:00-18:00,BPL4200207
395,IND8202441,Pavan Yadav,11-Sep-17,5-Apr-93,9144566396,Indore,Navneet Darshan,pavan.yadav@swastika.co.in,Dealer ,Trading,"8,500",0,9:30-18:30,10:00-18:00,IND5400069
396,IND8202442,Anil Sahani,13-Sep-17,25-Oct-91,9098322788,Indore,Head Office,anil.sahani@swastika.co.in,Executive,Admin,"10,000",0,8:30-17:30,10:00-18:00,IND5600021
397,COM8202443,A.Shameena Begum,18-Sep-17,3-Mar-83,9751011768,Coimbatore,Coimbatore,shameena.b@swastika.co.in, Dealer,Marketing,"13,500",4,9:00-18:00,10:00-18:00,COM7402224
398,IND8202444,Tarika Sharma,18-Sep-17,3-Jun-93,8305458501,Indore, Head Office,tarika.sharma@swastika.co.in,Executive,NBFC,"9,000",4,10:00-19:00,10:00-18:00,IND5201292
399,IND8202446,Shalini Singh,25-Sep-17,13-Feb-94,8817206587,Indore,Head Office,shalini.singh@swastika.co.in,Executive,HR,"10,000",3,9:15-18:15,10:00-18:00,IND1100001
400,SRT8402447,Faizan Painter ,18-Sep-17,7-Jun-95,9724820003,Surat,Surat,faizan.painter@swastika.co.in,Relationship Manager,Marketing,"14,000",4,9:00-18:00,10:00-18:00,SRT5202264
401,IND8302039,Rohit Jain ,26-Sep-17,28-Jan-93,8821017365,Indore ,Head Office ,rohit.j@swastika.co.in ,Executive,IT,"9,000",3,8:30-17:30,10:00-18:00,IND5600009
402,IND8302450,Aniket Jaiswal,28-Sep-17,16-Oct-98,8602120114,Indore,YN Road,aniket.jaiswal@shareshoppe.in,Business Development Executive ,Shareshoppe,"11,000",3,9:30-18:30,10:00-18:00,IND4200099
403,RAI5202451,Tulika Asthana,3-Oct-17,6-Dec-84,9300256870,Raipur,Raipur,tulika.asthana@swastika.co.in,Branch Manager,Marketing,"38,000",4,8:45-17:45,10:00-18:00,RAI7202367
404,IND8402452,Poonam Tripathi,3-Oct-17,20-Apr-92,7566128497,Indore,YN Road,poonam.tripathi@swastika.co.in,Executive,Mutual Fund,"8,000",3,9:30-18:30,10:00-18:00,IND7200063
405,IND8202453,Mayank Likhar,23-Oct-17,23-Sep-92,8770554733,Indore,Head Office,mayank.l@swastika.co.in,Executive,Admin,"10,000",3,8:30-17:30,10:00-18:00,IND5600021
406,IND8202454,Praneeta Dubey,10-Oct-17,24-May-93,7440888018,Indore,YN Road,praneeta.dubey@swastika.co.in,Executive,Compliance,"12,000",3,9:30-18:30,10:00-18:00,IND5600606
407,CHN8202455,A. Anbukkarasi,11-Oct-17,12-Apr-94,8056722280,Chennai,Chennai,anbukkarasi@swastika.co.in,Back Office,Telecaller,"11,000",3,9:00-18:00,10:00-18:00,CHN4500675
408,JDP7202456,Raghuveer Singh Parihar,11-Oct-17,8-Jul-75,9414440859,Jodhpur,Jodhpur,raghuveer@swastika.co.in,Relationship Manager,Marketing,"17,000",3,8:45-17:45,10:00-18:00,JDP5201398
409,VRN8302457,Priyanka Lall,12-Oct-17,30-Sep-85,7992099991,Varanasi,Varanasi,priyanka.l@swastika.co.in, Dealer,Trading,"11,000",3,9:00-18:00,10:00-18:00,VRN4800983
410,BPL8402458,Deepak Kushwaha,12-Oct-17,1-Jan-95,8962497467,Bhopal,Bhopal,deepak.kushwaha@swastika.co.in,Dealer,Trading,"8,000",3,8:45-17:45,10:00-18:00,BPL4200207
411,KOL4502459,Vikash Sanganeria,,,9984547755,Kolkata,Kolkata,vikash.kol@swastika.co.in,Regional Head,Marketing,,,9:00-18:00,10:00-18:00,IND1100001
412,SRT8202460,Pankajkumar Bhatu Suryawanshi,18-Oct-17,11-Jun-81,7038804855,Surat,Surat,pankaj.s@swastika.co.in,Dealer,Trading,"15,000",3,9:00-18:00,10:00-18:00,SRT5202264
413,BRL8402461,Renu Rathore,17-Oct-17,2-Jul-86,7417413453,Bareilly,Bareilly,renu.rathore@swastika.co.in,Relationship Executive,Marketing,"10,000",3,9:00-18:00,10:00-18:00,BRL5102015